[
    {
        "ID": "1",
        "QuestionType": "Text"
    },
    {
        "ID": "2",
        "QuestionType": "Number"
    },
    {
        "ID": "3",
        "QuestionType": "CheckBox"
    },
    {
        "ID": "4",
        "QuestionType": "Photo"
    },
    {
        "ID": "5",
        "QuestionType": "Signature"
    },
    {
        "ID": "6",
        "QuestionType": "Drawing"
    },
    {
        "ID": "7",
        "QuestionType": "Bullet (use | for answers in questiontext)"
    },
    {
        "ID": "8",
        "QuestionType": "DropDown (use | for answers in questiontext)"
    },
    {
        "ID": "9",
        "QuestionType": "Label"
    },
    {
        "ID": "10",
        "QuestionType": "Show Risk Assesment Image"
    },
    {
        "ID": "11",
        "QuestionType": "Isolation Procedure"
    },
    {
        "ID": "12",
        "QuestionType": "Risk Assesment Question"
    },
    {
        "ID": "13",
        "QuestionType": "Show Custom Image (save image as base64 in questiontext)"
    }
]