[
    {
        "QuestionHeader": "Description of Work task",
        "QuestionID": 629,
        "QuestionSort": 1770,
        "QuestionTerminalType": 1,
        "QuestionText": "0",
        "QuestionType": 10,
        "QuestionairName": "JOB SAFETY & ENVIRONMENTAL ANALYSIS"
    },
    {
        "QuestionHeader": "Description of Work task",
        "QuestionID": 630,
        "QuestionSort": 1780,
        "QuestionTerminalType": 1,
        "QuestionText": "1",
        "QuestionType": 12,
        "QuestionairName": "JOB SAFETY & ENVIRONMENTAL ANALYSIS"
    },
    {
        "QuestionHeader": "Description of Work task",
        "QuestionID": 631,
        "QuestionSort": 1790,
        "QuestionTerminalType": 1,
        "QuestionText": "2",
        "QuestionType": 12,
        "QuestionairName": "JOB SAFETY & ENVIRONMENTAL ANALYSIS"
    },
    {
        "QuestionHeader": "Description of Work task",
        "QuestionID": 632,
        "QuestionSort": 1800,
        "QuestionTerminalType": 1,
        "QuestionText": "3",
        "QuestionType": 12,
        "QuestionairName": "JOB SAFETY & ENVIRONMENTAL ANALYSIS"
    },
    {
        "QuestionHeader": "Description of Work task",
        "QuestionID": 633,
        "QuestionSort": 1810,
        "QuestionTerminalType": 1,
        "QuestionText": "4",
        "QuestionType": 12,
        "QuestionairName": "JOB SAFETY & ENVIRONMENTAL ANALYSIS"
    },
    {
        "QuestionHeader": "Description of Work task",
        "QuestionID": 634,
        "QuestionSort": 1820,
        "QuestionTerminalType": 1,
        "QuestionText": "5",
        "QuestionType": 12,
        "QuestionairName": "JOB SAFETY & ENVIRONMENTAL ANALYSIS"
    },
    {
        "QuestionHeader": "Description of Work task",
        "QuestionID": 635,
        "QuestionSort": 1830,
        "QuestionTerminalType": 1,
        "QuestionText": "6",
        "QuestionType": 12,
        "QuestionairName": "JOB SAFETY & ENVIRONMENTAL ANALYSIS"
    },
    {
        "QuestionHeader": "Description of Work task",
        "QuestionID": 636,
        "QuestionSort": 1840,
        "QuestionTerminalType": 1,
        "QuestionText": "7",
        "QuestionType": 12,
        "QuestionairName": "JOB SAFETY & ENVIRONMENTAL ANALYSIS"
    },
    {
        "QuestionHeader": "Description of Work task",
        "QuestionID": 637,
        "QuestionSort": 1850,
        "QuestionTerminalType": 1,
        "QuestionText": "8",
        "QuestionType": 12,
        "QuestionairName": "JOB SAFETY & ENVIRONMENTAL ANALYSIS"
    },
    {
        "QuestionHeader": "Description of Work task",
        "QuestionID": 638,
        "QuestionSort": 1860,
        "QuestionTerminalType": 1,
        "QuestionText": "9",
        "QuestionType": 12,
        "QuestionairName": "JOB SAFETY & ENVIRONMENTAL ANALYSIS"
    },
    {
        "QuestionHeader": "Description of Work task",
        "QuestionID": 639,
        "QuestionSort": 1870,
        "QuestionTerminalType": 1,
        "QuestionText": "10",
        "QuestionType": 12,
        "QuestionairName": "JOB SAFETY & ENVIRONMENTAL ANALYSIS"
    },
    {
        "QuestionHeader": "Description of Work task",
        "QuestionID": 640,
        "QuestionSort": 1880,
        "QuestionTerminalType": 1,
        "QuestionText": "11",
        "QuestionType": 12,
        "QuestionairName": "JOB SAFETY & ENVIRONMENTAL ANALYSIS"
    },
    {
        "QuestionHeader": "Description of Work task",
        "QuestionID": 641,
        "QuestionSort": 1890,
        "QuestionTerminalType": 1,
        "QuestionText": "12",
        "QuestionType": 12,
        "QuestionairName": "JOB SAFETY & ENVIRONMENTAL ANALYSIS"
    },
    {
        "QuestionHeader": "Emergency Response",
        "QuestionID": 520,
        "QuestionSort": 680,
        "QuestionTerminalType": 1,
        "QuestionText": "Nearest emergency pick up point",
        "QuestionType": 1,
        "QuestionairName": "JOB SAFETY & ENVIRONMENTAL ANALYSIS"
    },
    {
        "QuestionHeader": "Emergency Response",
        "QuestionID": 521,
        "QuestionSort": 690,
        "QuestionTerminalType": 1,
        "QuestionText": "Nearest assembly area/point",
        "QuestionType": 1,
        "QuestionairName": "JOB SAFETY & ENVIRONMENTAL ANALYSIS"
    },
    {
        "QuestionHeader": "Emergency Response",
        "QuestionID": 522,
        "QuestionSort": 700,
        "QuestionTerminalType": 1,
        "QuestionText": "Nearest phone",
        "QuestionType": 1,
        "QuestionairName": "JOB SAFETY & ENVIRONMENTAL ANALYSIS"
    },
    {
        "QuestionHeader": "Emergency Response",
        "QuestionID": 523,
        "QuestionSort": 710,
        "QuestionTerminalType": 1,
        "QuestionText": "Emergency phone No",
        "QuestionType": 1,
        "QuestionairName": "JOB SAFETY & ENVIRONMENTAL ANALYSIS"
    },
    {
        "QuestionHeader": "Emergency Response",
        "QuestionID": 524,
        "QuestionSort": 720,
        "QuestionTerminalType": 1,
        "QuestionText": "Emergency mob",
        "QuestionType": 1,
        "QuestionairName": "JOB SAFETY & ENVIRONMENTAL ANALYSIS"
    },
    {
        "QuestionHeader": "Engineering Details/Certificates/WorkCover Approvals",
        "QuestionID": 623,
        "QuestionSort": 1710,
        "QuestionTerminalType": 1,
        "QuestionText": "MANAGEMENT PLAN/ DETAILS                                                     ",
        "QuestionType": 1,
        "QuestionairName": "JOB SAFETY & ENVIRONMENTAL ANALYSIS"
    },
    {
        "QuestionHeader": "Engineering Details/Certificates/WorkCover Approvals",
        "QuestionID": 624,
        "QuestionSort": 1720,
        "QuestionTerminalType": 1,
        "QuestionText": "MANAGEMENT PLAN/ DETAILS                                                     ",
        "QuestionType": 1,
        "QuestionairName": "JOB SAFETY & ENVIRONMENTAL ANALYSIS"
    },
    {
        "QuestionHeader": "Engineering Details/Certificates/WorkCover Approvals",
        "QuestionID": 625,
        "QuestionSort": 1730,
        "QuestionTerminalType": 1,
        "QuestionText": "MANAGEMENT PLAN/ DETAILS                                                     ",
        "QuestionType": 1,
        "QuestionairName": "JOB SAFETY & ENVIRONMENTAL ANALYSIS"
    },
    {
        "QuestionHeader": "Engineering Details/Certificates/WorkCover Approvals",
        "QuestionID": 626,
        "QuestionSort": 1740,
        "QuestionTerminalType": 1,
        "QuestionText": "TECHNICAL DRAWINGS",
        "QuestionType": 1,
        "QuestionairName": "JOB SAFETY & ENVIRONMENTAL ANALYSIS"
    },
    {
        "QuestionHeader": "Engineering Details/Certificates/WorkCover Approvals",
        "QuestionID": 627,
        "QuestionSort": 1750,
        "QuestionTerminalType": 1,
        "QuestionText": "TECHNICAL DRAWINGS",
        "QuestionType": 1,
        "QuestionairName": "JOB SAFETY & ENVIRONMENTAL ANALYSIS"
    },
    {
        "QuestionHeader": "Engineering Details/Certificates/WorkCover Approvals",
        "QuestionID": 628,
        "QuestionSort": 1760,
        "QuestionTerminalType": 1,
        "QuestionText": "TECHNICAL DRAWINGS",
        "QuestionType": 1,
        "QuestionairName": "JOB SAFETY & ENVIRONMENTAL ANALYSIS"
    },
    {
        "QuestionHeader": "Environmental impacts identified in this risk assessment",
        "QuestionID": 489,
        "QuestionSort": 370,
        "QuestionTerminalType": 1,
        "QuestionText": "Air Emission",
        "QuestionType": 3,
        "QuestionairName": "JOB SAFETY & ENVIRONMENTAL ANALYSIS"
    },
    {
        "QuestionHeader": "Environmental impacts identified in this risk assessment",
        "QuestionID": 490,
        "QuestionSort": 380,
        "QuestionTerminalType": 1,
        "QuestionText": "Water discharge",
        "QuestionType": 3,
        "QuestionairName": "JOB SAFETY & ENVIRONMENTAL ANALYSIS"
    },
    {
        "QuestionHeader": "Environmental impacts identified in this risk assessment",
        "QuestionID": 491,
        "QuestionSort": 390,
        "QuestionTerminalType": 1,
        "QuestionText": "Noise Emission",
        "QuestionType": 3,
        "QuestionairName": "JOB SAFETY & ENVIRONMENTAL ANALYSIS"
    },
    {
        "QuestionHeader": "Environmental impacts identified in this risk assessment",
        "QuestionID": 492,
        "QuestionSort": 400,
        "QuestionTerminalType": 1,
        "QuestionText": "Waste management",
        "QuestionType": 3,
        "QuestionairName": "JOB SAFETY & ENVIRONMENTAL ANALYSIS"
    },
    {
        "QuestionHeader": "Environmental impacts identified in this risk assessment",
        "QuestionID": 493,
        "QuestionSort": 410,
        "QuestionTerminalType": 1,
        "QuestionText": "Soil contamination",
        "QuestionType": 3,
        "QuestionairName": "JOB SAFETY & ENVIRONMENTAL ANALYSIS"
    },
    {
        "QuestionHeader": "Environmental impacts identified in this risk assessment",
        "QuestionID": 494,
        "QuestionSort": 420,
        "QuestionTerminalType": 1,
        "QuestionText": "Vegetation damage",
        "QuestionType": 3,
        "QuestionairName": "JOB SAFETY & ENVIRONMENTAL ANALYSIS"
    },
    {
        "QuestionHeader": "Environmental impacts identified in this risk assessment",
        "QuestionID": 495,
        "QuestionSort": 430,
        "QuestionTerminalType": 1,
        "QuestionText": "Other",
        "QuestionType": 1,
        "QuestionairName": "JOB SAFETY & ENVIRONMENTAL ANALYSIS"
    },
    {
        "QuestionHeader": "Hazardous energy",
        "QuestionID": 457,
        "QuestionSort": 50,
        "QuestionTerminalType": 1,
        "QuestionText": "Overview of JSEA Findings: Hazardous energy, work environment, plant and permits associated with this work task.",
        "QuestionType": 9,
        "QuestionairName": "JOB SAFETY & ENVIRONMENTAL ANALYSIS"
    },
    {
        "QuestionHeader": "Hazardous energy",
        "QuestionID": 458,
        "QuestionSort": 60,
        "QuestionTerminalType": 1,
        "QuestionText": "Electrical Energy",
        "QuestionType": 3,
        "QuestionairName": "JOB SAFETY & ENVIRONMENTAL ANALYSIS"
    },
    {
        "QuestionHeader": "Hazardous energy",
        "QuestionID": 459,
        "QuestionSort": 70,
        "QuestionTerminalType": 1,
        "QuestionText": "Stored Energy",
        "QuestionType": 3,
        "QuestionairName": "JOB SAFETY & ENVIRONMENTAL ANALYSIS"
    },
    {
        "QuestionHeader": "Hazardous energy",
        "QuestionID": 460,
        "QuestionSort": 80,
        "QuestionTerminalType": 1,
        "QuestionText": "Gravitational Energy",
        "QuestionType": 3,
        "QuestionairName": "JOB SAFETY & ENVIRONMENTAL ANALYSIS"
    },
    {
        "QuestionHeader": "Hazardous energy",
        "QuestionID": 461,
        "QuestionSort": 90,
        "QuestionTerminalType": 1,
        "QuestionText": "Mechanical Energy",
        "QuestionType": 3,
        "QuestionairName": "JOB SAFETY & ENVIRONMENTAL ANALYSIS"
    },
    {
        "QuestionHeader": "Hazardous energy",
        "QuestionID": 462,
        "QuestionSort": 100,
        "QuestionTerminalType": 1,
        "QuestionText": "Thermal Energy",
        "QuestionType": 3,
        "QuestionairName": "JOB SAFETY & ENVIRONMENTAL ANALYSIS"
    },
    {
        "QuestionHeader": "Hazardous energy",
        "QuestionID": 463,
        "QuestionSort": 110,
        "QuestionTerminalType": 1,
        "QuestionText": "Human Energy",
        "QuestionType": 3,
        "QuestionairName": "JOB SAFETY & ENVIRONMENTAL ANALYSIS"
    },
    {
        "QuestionHeader": "Hazardous energy",
        "QuestionID": 464,
        "QuestionSort": 120,
        "QuestionTerminalType": 1,
        "QuestionText": "Noise Energy",
        "QuestionType": 3,
        "QuestionairName": "JOB SAFETY & ENVIRONMENTAL ANALYSIS"
    },
    {
        "QuestionHeader": "Hazardous energy",
        "QuestionID": 465,
        "QuestionSort": 130,
        "QuestionTerminalType": 1,
        "QuestionText": "Chemical Energy",
        "QuestionType": 3,
        "QuestionairName": "JOB SAFETY & ENVIRONMENTAL ANALYSIS"
    },
    {
        "QuestionHeader": "Hazardous energy",
        "QuestionID": 466,
        "QuestionSort": 140,
        "QuestionTerminalType": 1,
        "QuestionText": "Radiation Energy",
        "QuestionType": 3,
        "QuestionairName": "JOB SAFETY & ENVIRONMENTAL ANALYSIS"
    },
    {
        "QuestionHeader": "Hazardous energy",
        "QuestionID": 467,
        "QuestionSort": 150,
        "QuestionTerminalType": 1,
        "QuestionText": "Biological Energy",
        "QuestionType": 3,
        "QuestionairName": "JOB SAFETY & ENVIRONMENTAL ANALYSIS"
    },
    {
        "QuestionHeader": "Hazardous energy",
        "QuestionID": 468,
        "QuestionSort": 160,
        "QuestionTerminalType": 1,
        "QuestionText": "Other",
        "QuestionType": 1,
        "QuestionairName": "JOB SAFETY & ENVIRONMENTAL ANALYSIS"
    },
    {
        "QuestionHeader": "Hazardous plant",
        "QuestionID": 474,
        "QuestionSort": 220,
        "QuestionTerminalType": 1,
        "QuestionText": "Crane/lifts",
        "QuestionType": 3,
        "QuestionairName": "JOB SAFETY & ENVIRONMENTAL ANALYSIS"
    },
    {
        "QuestionHeader": "Hazardous plant",
        "QuestionID": 475,
        "QuestionSort": 230,
        "QuestionTerminalType": 1,
        "QuestionText": "Scaffolding",
        "QuestionType": 3,
        "QuestionairName": "JOB SAFETY & ENVIRONMENTAL ANALYSIS"
    },
    {
        "QuestionHeader": "Hazardous plant",
        "QuestionID": 476,
        "QuestionSort": 240,
        "QuestionTerminalType": 1,
        "QuestionText": "Traffic/mobile plant",
        "QuestionType": 3,
        "QuestionairName": "JOB SAFETY & ENVIRONMENTAL ANALYSIS"
    },
    {
        "QuestionHeader": "Hazardous plant",
        "QuestionID": 477,
        "QuestionSort": 250,
        "QuestionTerminalType": 1,
        "QuestionText": "Electrical tools",
        "QuestionType": 3,
        "QuestionairName": "JOB SAFETY & ENVIRONMENTAL ANALYSIS"
    },
    {
        "QuestionHeader": "Hazardous plant",
        "QuestionID": 478,
        "QuestionSort": 260,
        "QuestionTerminalType": 1,
        "QuestionText": "Other",
        "QuestionType": 1,
        "QuestionairName": "JOB SAFETY & ENVIRONMENTAL ANALYSIS"
    },
    {
        "QuestionHeader": "Hazardous work environment/situations",
        "QuestionID": 469,
        "QuestionSort": 170,
        "QuestionTerminalType": 1,
        "QuestionText": "Confined Spaces",
        "QuestionType": 3,
        "QuestionairName": "JOB SAFETY & ENVIRONMENTAL ANALYSIS"
    },
    {
        "QuestionHeader": "Hazardous work environment/situations",
        "QuestionID": 470,
        "QuestionSort": 180,
        "QuestionTerminalType": 1,
        "QuestionText": "Working at Heights",
        "QuestionType": 3,
        "QuestionairName": "JOB SAFETY & ENVIRONMENTAL ANALYSIS"
    },
    {
        "QuestionHeader": "Hazardous work environment/situations",
        "QuestionID": 471,
        "QuestionSort": 190,
        "QuestionTerminalType": 1,
        "QuestionText": "Open Pits /excavation",
        "QuestionType": 3,
        "QuestionairName": "JOB SAFETY & ENVIRONMENTAL ANALYSIS"
    },
    {
        "QuestionHeader": "Hazardous work environment/situations",
        "QuestionID": 472,
        "QuestionSort": 200,
        "QuestionTerminalType": 1,
        "QuestionText": "Hot Work",
        "QuestionType": 3,
        "QuestionairName": "JOB SAFETY & ENVIRONMENTAL ANALYSIS"
    },
    {
        "QuestionHeader": "Hazardous work environment/situations",
        "QuestionID": 473,
        "QuestionSort": 210,
        "QuestionTerminalType": 1,
        "QuestionText": "Other",
        "QuestionType": 1,
        "QuestionairName": "JOB SAFETY & ENVIRONMENTAL ANALYSIS"
    },
    {
        "QuestionHeader": "Identification, Assess, Control",
        "QuestionID": 720,
        "QuestionSort": 260,
        "QuestionTerminalType": 1,
        "QuestionText": "Test before you Touch - No Live Work",
        "QuestionType": 9,
        "QuestionairName": "DamstraHolcim LV Electrical Work Risk Assesment"
    },
    {
        "QuestionHeader": "Identification, Assess, Control",
        "QuestionID": 721,
        "QuestionSort": 270,
        "QuestionTerminalType": 1,
        "QuestionText": "Enter Risk score as Identified",
        "QuestionType": 9,
        "QuestionairName": "DamstraHolcim LV Electrical Work Risk Assesment"
    },
    {
        "QuestionHeader": "Identification, Assess, Control",
        "QuestionID": 722,
        "QuestionSort": 280,
        "QuestionTerminalType": 1,
        "QuestionText": "image",
        "QuestionType": 10,
        "QuestionairName": "DamstraHolcim LV Electrical Work Risk Assesment"
    },
    {
        "QuestionHeader": "Identification, Assess, Control",
        "QuestionID": 723,
        "QuestionSort": 290,
        "QuestionTerminalType": 1,
        "QuestionText": "Risk Assesment",
        "QuestionType": 12,
        "QuestionairName": "DamstraHolcim LV Electrical Work Risk Assesment"
    },
    {
        "QuestionHeader": "Identification, Assess, Control",
        "QuestionID": 724,
        "QuestionSort": 300,
        "QuestionTerminalType": 1,
        "QuestionText": "Risk Assesment",
        "QuestionType": 12,
        "QuestionairName": "DamstraHolcim LV Electrical Work Risk Assesment"
    },
    {
        "QuestionHeader": "Identification, Assess, Control",
        "QuestionID": 725,
        "QuestionSort": 310,
        "QuestionTerminalType": 1,
        "QuestionText": "Risk Assesment",
        "QuestionType": 12,
        "QuestionairName": "DamstraHolcim LV Electrical Work Risk Assesment"
    },
    {
        "QuestionHeader": "Identification, Assess, Control",
        "QuestionID": 726,
        "QuestionSort": 320,
        "QuestionTerminalType": 1,
        "QuestionText": "Risk Assesment",
        "QuestionType": 12,
        "QuestionairName": "DamstraHolcim LV Electrical Work Risk Assesment"
    },
    {
        "QuestionHeader": "Identification, Assess, Control",
        "QuestionID": 727,
        "QuestionSort": 330,
        "QuestionTerminalType": 1,
        "QuestionText": "Risk Assesment",
        "QuestionType": 12,
        "QuestionairName": "DamstraHolcim LV Electrical Work Risk Assesment"
    },
    {
        "QuestionHeader": "Identification, Assess, Control",
        "QuestionID": 728,
        "QuestionSort": 340,
        "QuestionTerminalType": 1,
        "QuestionText": "Risk Assesment",
        "QuestionType": 12,
        "QuestionairName": "DamstraHolcim LV Electrical Work Risk Assesment"
    },
    {
        "QuestionHeader": "Individual aspects",
        "QuestionID": 544,
        "QuestionSort": 920,
        "QuestionTerminalType": 1,
        "QuestionText": "Manual Handling Risk Identification Checklist:",
        "QuestionType": 9,
        "QuestionairName": "JOB SAFETY & ENVIRONMENTAL ANALYSIS"
    },
    {
        "QuestionHeader": "Individual aspects",
        "QuestionID": 545,
        "QuestionSort": 930,
        "QuestionTerminalType": 1,
        "QuestionText": "Is the employee new to the work or returning from a break.",
        "QuestionType": 3,
        "QuestionairName": "JOB SAFETY & ENVIRONMENTAL ANALYSIS"
    },
    {
        "QuestionHeader": "Individual aspects",
        "QuestionID": 546,
        "QuestionSort": 940,
        "QuestionTerminalType": 1,
        "QuestionText": "Other factors that may affect performance i.e. clothing,  shoulder, knee, back or other health issues that may effect performance",
        "QuestionType": 3,
        "QuestionairName": "JOB SAFETY & ENVIRONMENTAL ANALYSIS"
    },
    {
        "QuestionHeader": "Instalation Photos",
        "QuestionID": 691,
        "QuestionSort": 2400,
        "QuestionTerminalType": 1,
        "QuestionText": "Before Instalation",
        "QuestionType": 4,
        "QuestionairName": "JOB SAFETY & ENVIRONMENTAL ANALYSIS"
    },
    {
        "QuestionHeader": "Instalation Photos",
        "QuestionID": 692,
        "QuestionSort": 2410,
        "QuestionTerminalType": 1,
        "QuestionText": "After Instalation",
        "QuestionType": 4,
        "QuestionairName": "JOB SAFETY & ENVIRONMENTAL ANALYSIS"
    },
    {
        "QuestionHeader": "Instalation Photos",
        "QuestionID": 693,
        "QuestionSort": 2420,
        "QuestionTerminalType": 1,
        "QuestionText": "Other Relevant Photos",
        "QuestionType": 4,
        "QuestionairName": "JOB SAFETY & ENVIRONMENTAL ANALYSIS"
    },
    {
        "QuestionHeader": "Isolation Procedure",
        "QuestionID": 575,
        "QuestionSort": 1230,
        "QuestionTerminalType": 1,
        "QuestionText": "List each isolation point - Initial when done.",
        "QuestionType": 9,
        "QuestionairName": "JOB SAFETY & ENVIRONMENTAL ANALYSIS"
    },
    {
        "QuestionHeader": "Isolation Procedure",
        "QuestionID": 577,
        "QuestionSort": 1250,
        "QuestionTerminalType": 1,
        "QuestionText": "All persons working on the job are to place Personal Danger Tags / Locks at each isolation point unless arrangements have been made for group isolation.",
        "QuestionType": 9,
        "QuestionairName": "JOB SAFETY & ENVIRONMENTAL ANALYSIS"
    },
    {
        "QuestionHeader": "Isolation Procedure",
        "QuestionID": 578,
        "QuestionSort": 1260,
        "QuestionTerminalType": 1,
        "QuestionText": "Step 1",
        "QuestionType": 11,
        "QuestionairName": "JOB SAFETY & ENVIRONMENTAL ANALYSIS"
    },
    {
        "QuestionHeader": "Isolation Procedure",
        "QuestionID": 579,
        "QuestionSort": 1270,
        "QuestionTerminalType": 1,
        "QuestionText": "Step 2",
        "QuestionType": 11,
        "QuestionairName": "JOB SAFETY & ENVIRONMENTAL ANALYSIS"
    },
    {
        "QuestionHeader": "Isolation Procedure",
        "QuestionID": 580,
        "QuestionSort": 1280,
        "QuestionTerminalType": 1,
        "QuestionText": "Step 3",
        "QuestionType": 11,
        "QuestionairName": "JOB SAFETY & ENVIRONMENTAL ANALYSIS"
    },
    {
        "QuestionHeader": "Isolation Procedure",
        "QuestionID": 581,
        "QuestionSort": 1290,
        "QuestionTerminalType": 1,
        "QuestionText": "Step 4",
        "QuestionType": 11,
        "QuestionairName": "JOB SAFETY & ENVIRONMENTAL ANALYSIS"
    },
    {
        "QuestionHeader": "Isolation Procedure",
        "QuestionID": 582,
        "QuestionSort": 1300,
        "QuestionTerminalType": 1,
        "QuestionText": "Step 5",
        "QuestionType": 11,
        "QuestionairName": "JOB SAFETY & ENVIRONMENTAL ANALYSIS"
    },
    {
        "QuestionHeader": "Isolation Procedure",
        "QuestionID": 583,
        "QuestionSort": 1310,
        "QuestionTerminalType": 1,
        "QuestionText": "Step 6",
        "QuestionType": 11,
        "QuestionairName": "JOB SAFETY & ENVIRONMENTAL ANALYSIS"
    },
    {
        "QuestionHeader": "Isolation Procedure",
        "QuestionID": 584,
        "QuestionSort": 1320,
        "QuestionTerminalType": 1,
        "QuestionText": "Step 7",
        "QuestionType": 11,
        "QuestionairName": "JOB SAFETY & ENVIRONMENTAL ANALYSIS"
    },
    {
        "QuestionHeader": "Isolation Procedure",
        "QuestionID": 585,
        "QuestionSort": 1330,
        "QuestionTerminalType": 1,
        "QuestionText": "Step 8",
        "QuestionType": 11,
        "QuestionairName": "JOB SAFETY & ENVIRONMENTAL ANALYSIS"
    },
    {
        "QuestionHeader": "Isolation Procedure",
        "QuestionID": 586,
        "QuestionSort": 1340,
        "QuestionTerminalType": 1,
        "QuestionText": "Step 9",
        "QuestionType": 11,
        "QuestionairName": "JOB SAFETY & ENVIRONMENTAL ANALYSIS"
    },
    {
        "QuestionHeader": "Isolation Procedure",
        "QuestionID": 587,
        "QuestionSort": 1350,
        "QuestionTerminalType": 1,
        "QuestionText": "Step 10",
        "QuestionType": 11,
        "QuestionairName": "JOB SAFETY & ENVIRONMENTAL ANALYSIS"
    },
    {
        "QuestionHeader": "Isolation Procedure",
        "QuestionID": 588,
        "QuestionSort": 1360,
        "QuestionTerminalType": 1,
        "QuestionText": "Step 11",
        "QuestionType": 11,
        "QuestionairName": "JOB SAFETY & ENVIRONMENTAL ANALYSIS"
    },
    {
        "QuestionHeader": "Isolation Procedure",
        "QuestionID": 589,
        "QuestionSort": 1370,
        "QuestionTerminalType": 1,
        "QuestionText": "Step 12",
        "QuestionType": 11,
        "QuestionairName": "JOB SAFETY & ENVIRONMENTAL ANALYSIS"
    },
    {
        "QuestionHeader": "Isolation Procedure",
        "QuestionID": 590,
        "QuestionSort": 1380,
        "QuestionTerminalType": 1,
        "QuestionText": "Step 13",
        "QuestionType": 11,
        "QuestionairName": "JOB SAFETY & ENVIRONMENTAL ANALYSIS"
    },
    {
        "QuestionHeader": "Isolation Procedure",
        "QuestionID": 591,
        "QuestionSort": 1390,
        "QuestionTerminalType": 1,
        "QuestionText": "Step 14",
        "QuestionType": 11,
        "QuestionairName": "JOB SAFETY & ENVIRONMENTAL ANALYSIS"
    },
    {
        "QuestionHeader": "Isolation Procedure",
        "QuestionID": 592,
        "QuestionSort": 1400,
        "QuestionTerminalType": 1,
        "QuestionText": "Step 15",
        "QuestionType": 11,
        "QuestionairName": "JOB SAFETY & ENVIRONMENTAL ANALYSIS"
    },
    {
        "QuestionHeader": "Isolation Procedure",
        "QuestionID": 593,
        "QuestionSort": 1410,
        "QuestionTerminalType": 1,
        "QuestionText": "Step 16",
        "QuestionType": 11,
        "QuestionairName": "JOB SAFETY & ENVIRONMENTAL ANALYSIS"
    },
    {
        "QuestionHeader": "Isolation Procedure",
        "QuestionID": 594,
        "QuestionSort": 1420,
        "QuestionTerminalType": 1,
        "QuestionText": "Step 17",
        "QuestionType": 11,
        "QuestionairName": "JOB SAFETY & ENVIRONMENTAL ANALYSIS"
    },
    {
        "QuestionHeader": "Isolation Procedure",
        "QuestionID": 595,
        "QuestionSort": 1430,
        "QuestionTerminalType": 1,
        "QuestionText": "Step 18",
        "QuestionType": 11,
        "QuestionairName": "JOB SAFETY & ENVIRONMENTAL ANALYSIS"
    },
    {
        "QuestionHeader": "Isolation Procedure",
        "QuestionID": 596,
        "QuestionSort": 1440,
        "QuestionTerminalType": 1,
        "QuestionText": "Step 19",
        "QuestionType": 11,
        "QuestionairName": "JOB SAFETY & ENVIRONMENTAL ANALYSIS"
    },
    {
        "QuestionHeader": "Job Completion – sign off",
        "QuestionID": 684,
        "QuestionSort": 2320,
        "QuestionTerminalType": 1,
        "QuestionText": "Area clear, free of hazards",
        "QuestionType": 3,
        "QuestionairName": "JOB SAFETY & ENVIRONMENTAL ANALYSIS"
    },
    {
        "QuestionHeader": "Job Completion – sign off",
        "QuestionID": 685,
        "QuestionSort": 2330,
        "QuestionTerminalType": 1,
        "QuestionText": "Area washed down of grease residue",
        "QuestionType": 3,
        "QuestionairName": "JOB SAFETY & ENVIRONMENTAL ANALYSIS"
    },
    {
        "QuestionHeader": "Job Completion – sign off",
        "QuestionID": 686,
        "QuestionSort": 2340,
        "QuestionTerminalType": 1,
        "QuestionText": "Danger Tags / Locks removed",
        "QuestionType": 3,
        "QuestionairName": "JOB SAFETY & ENVIRONMENTAL ANALYSIS"
    },
    {
        "QuestionHeader": "Job Completion – sign off",
        "QuestionID": 687,
        "QuestionSort": 2350,
        "QuestionTerminalType": 1,
        "QuestionText": "ATW Sign Off",
        "QuestionType": 3,
        "QuestionairName": "JOB SAFETY & ENVIRONMENTAL ANALYSIS"
    },
    {
        "QuestionHeader": "Job Completion – sign off",
        "QuestionID": 688,
        "QuestionSort": 2360,
        "QuestionTerminalType": 1,
        "QuestionText": "Other",
        "QuestionType": 3,
        "QuestionairName": "JOB SAFETY & ENVIRONMENTAL ANALYSIS"
    },
    {
        "QuestionHeader": "Job Completion – sign off",
        "QuestionID": 689,
        "QuestionSort": 2370,
        "QuestionTerminalType": 1,
        "QuestionText": "Comments:",
        "QuestionType": 1,
        "QuestionairName": "JOB SAFETY & ENVIRONMENTAL ANALYSIS"
    },
    {
        "QuestionHeader": "Job Completion – sign off",
        "QuestionID": 690,
        "QuestionSort": 2380,
        "QuestionTerminalType": 1,
        "QuestionText": "Sign off: Supervisor / Responsible Person Name:",
        "QuestionType": 5,
        "QuestionairName": "JOB SAFETY & ENVIRONMENTAL ANALYSIS"
    },
    {
        "QuestionHeader": "Job handover information section ",
        "QuestionID": 679,
        "QuestionSort": 2270,
        "QuestionTerminalType": 1,
        "QuestionText": "The supervisor / responsible person who is handing over the work task is to complete this section. ||Complete with information about work task progress as well as health, safety and environmental issues that are relevant to performing the work task safely i.e. current job step, JSEA modifications, work task related incidents, work conditions, isolations, any scope change, personnel resources, equipment tool requirements, etc   ",
        "QuestionType": 9,
        "QuestionairName": "JOB SAFETY & ENVIRONMENTAL ANALYSIS"
    },
    {
        "QuestionHeader": "Job handover information section ",
        "QuestionID": 680,
        "QuestionSort": 2280,
        "QuestionTerminalType": 1,
        "QuestionText": "Handover Information ",
        "QuestionType": 1,
        "QuestionairName": "JOB SAFETY & ENVIRONMENTAL ANALYSIS"
    },
    {
        "QuestionHeader": "Job handover information section ",
        "QuestionID": 681,
        "QuestionSort": 2290,
        "QuestionTerminalType": 1,
        "QuestionText": "Signature",
        "QuestionType": 5,
        "QuestionairName": "JOB SAFETY & ENVIRONMENTAL ANALYSIS"
    },
    {
        "QuestionHeader": "JOB SAFETY & ENVIRONMENTAL ANALYSIS (JSEA)",
        "QuestionID": 453,
        "QuestionSort": 10,
        "QuestionTerminalType": 1,
        "QuestionText": "Job No.",
        "QuestionType": 1,
        "QuestionairName": "JOB SAFETY & ENVIRONMENTAL ANALYSIS"
    },
    {
        "QuestionHeader": "JOB SAFETY & ENVIRONMENTAL ANALYSIS (JSEA)",
        "QuestionID": 454,
        "QuestionSort": 20,
        "QuestionTerminalType": 1,
        "QuestionText": "Analysis by: (supervisor/customer rep / person responsible)",
        "QuestionType": 1,
        "QuestionairName": "JOB SAFETY & ENVIRONMENTAL ANALYSIS"
    },
    {
        "QuestionHeader": "JOB SAFETY & ENVIRONMENTAL ANALYSIS (JSEA)",
        "QuestionID": 455,
        "QuestionSort": 30,
        "QuestionTerminalType": 1,
        "QuestionText": "Approved by: (supervisor/customer rep / person responsible)",
        "QuestionType": 1,
        "QuestionairName": "JOB SAFETY & ENVIRONMENTAL ANALYSIS"
    },
    {
        "QuestionHeader": "JOB SAFETY & ENVIRONMENTAL ANALYSIS (JSEA)",
        "QuestionID": 456,
        "QuestionSort": 40,
        "QuestionTerminalType": 1,
        "QuestionText": "Work task Supervisor",
        "QuestionType": 1,
        "QuestionairName": "JOB SAFETY & ENVIRONMENTAL ANALYSIS"
    },
    {
        "QuestionHeader": "MMAW PRE-START SAFETY CHECKLIST",
        "QuestionID": 547,
        "QuestionSort": 950,
        "QuestionTerminalType": 1,
        "QuestionText": "This pre-start safety checklist is to be completed by the competent welder (tradesperson) assigned to the task, at the commencement of each shift. \\n **THIS IS A MANDATORY REQUIREMENT**",
        "QuestionType": 9,
        "QuestionairName": "JOB SAFETY & ENVIRONMENTAL ANALYSIS"
    },
    {
        "QuestionHeader": "MMAW PRE-START SAFETY CHECKLIST",
        "QuestionID": 548,
        "QuestionSort": 960,
        "QuestionTerminalType": 1,
        "QuestionText": "Job Description",
        "QuestionType": 1,
        "QuestionairName": "JOB SAFETY & ENVIRONMENTAL ANALYSIS"
    },
    {
        "QuestionHeader": "MMAW PRE-START SAFETY CHECKLIST",
        "QuestionID": 549,
        "QuestionSort": 970,
        "QuestionTerminalType": 1,
        "QuestionText": "RISK ASSESSMENT",
        "QuestionType": 9,
        "QuestionairName": "JOB SAFETY & ENVIRONMENTAL ANALYSIS"
    },
    {
        "QuestionHeader": "MMAW PRE-START SAFETY CHECKLIST",
        "QuestionID": 550,
        "QuestionSort": 980,
        "QuestionTerminalType": 1,
        "QuestionText": "Activity is covered by a risk assessment or JSEA?",
        "QuestionType": 3,
        "QuestionairName": "JOB SAFETY & ENVIRONMENTAL ANALYSIS"
    },
    {
        "QuestionHeader": "MMAW PRE-START SAFETY CHECKLIST",
        "QuestionID": 551,
        "QuestionSort": 990,
        "QuestionTerminalType": 1,
        "QuestionText": "Are you familiar with the Thomas & Coffey welding procedure?",
        "QuestionType": 3,
        "QuestionairName": "JOB SAFETY & ENVIRONMENTAL ANALYSIS"
    },
    {
        "QuestionHeader": "MMAW PRE-START SAFETY CHECKLIST",
        "QuestionID": 552,
        "QuestionSort": 1000,
        "QuestionTerminalType": 1,
        "QuestionText": "HAZARDS/RISKS CONSIDERED AND ASSESSED",
        "QuestionType": 9,
        "QuestionairName": "JOB SAFETY & ENVIRONMENTAL ANALYSIS"
    },
    {
        "QuestionHeader": "MMAW PRE-START SAFETY CHECKLIST",
        "QuestionID": 553,
        "QuestionSort": 1010,
        "QuestionTerminalType": 1,
        "QuestionText": "Is the work area dry? (consider electrical conductivity, i.e. rubber mats, leather)",
        "QuestionType": 3,
        "QuestionairName": "JOB SAFETY & ENVIRONMENTAL ANALYSIS"
    },
    {
        "QuestionHeader": "MMAW PRE-START SAFETY CHECKLIST",
        "QuestionID": 554,
        "QuestionSort": 1020,
        "QuestionTerminalType": 1,
        "QuestionText": "Work area clear of slip and trip hazards?",
        "QuestionType": 3,
        "QuestionairName": "JOB SAFETY & ENVIRONMENTAL ANALYSIS"
    },
    {
        "QuestionHeader": "MMAW PRE-START SAFETY CHECKLIST",
        "QuestionID": 555,
        "QuestionSort": 1030,
        "QuestionTerminalType": 1,
        "QuestionText": "Work area clear of flammables/combustibles?",
        "QuestionType": 3,
        "QuestionairName": "JOB SAFETY & ENVIRONMENTAL ANALYSIS"
    },
    {
        "QuestionHeader": "MMAW PRE-START SAFETY CHECKLIST",
        "QuestionID": 556,
        "QuestionSort": 1040,
        "QuestionTerminalType": 1,
        "QuestionText": "Clothing laundered and dry? (consider conductivity)",
        "QuestionType": 3,
        "QuestionairName": "JOB SAFETY & ENVIRONMENTAL ANALYSIS"
    },
    {
        "QuestionHeader": "MMAW PRE-START SAFETY CHECKLIST",
        "QuestionID": 557,
        "QuestionSort": 1050,
        "QuestionTerminalType": 1,
        "QuestionText": "Do you have all appropriate PPE? (boots, spats, leather gauntlet gloves, respirator etc)",
        "QuestionType": 3,
        "QuestionairName": "JOB SAFETY & ENVIRONMENTAL ANALYSIS"
    },
    {
        "QuestionHeader": "MMAW PRE-START SAFETY CHECKLIST",
        "QuestionID": 558,
        "QuestionSort": 1060,
        "QuestionTerminalType": 1,
        "QuestionText": "Energy sources/stored energy made safe? (isolations performed)",
        "QuestionType": 3,
        "QuestionairName": "JOB SAFETY & ENVIRONMENTAL ANALYSIS"
    },
    {
        "QuestionHeader": "MMAW PRE-START SAFETY CHECKLIST",
        "QuestionID": 559,
        "QuestionSort": 1070,
        "QuestionTerminalType": 1,
        "QuestionText": "Fire fighting equipment at hand?",
        "QuestionType": 3,
        "QuestionairName": "JOB SAFETY & ENVIRONMENTAL ANALYSIS"
    },
    {
        "QuestionHeader": "MMAW PRE-START SAFETY CHECKLIST",
        "QuestionID": 560,
        "QuestionSort": 1080,
        "QuestionTerminalType": 1,
        "QuestionText": "Adequate oxygen present? (Ventilation). If a confined space, has appropriate",
        "QuestionType": 3,
        "QuestionairName": "JOB SAFETY & ENVIRONMENTAL ANALYSIS"
    },
    {
        "QuestionHeader": "MMAW PRE-START SAFETY CHECKLIST",
        "QuestionID": 561,
        "QuestionSort": 1090,
        "QuestionTerminalType": 1,
        "QuestionText": "On the job safety and controls discussed with others?",
        "QuestionType": 3,
        "QuestionairName": "JOB SAFETY & ENVIRONMENTAL ANALYSIS"
    },
    {
        "QuestionHeader": "MMAW PRE-START SAFETY CHECKLIST",
        "QuestionID": 562,
        "QuestionSort": 1100,
        "QuestionTerminalType": 1,
        "QuestionText": "Adequate access and clearance to carry out welding?",
        "QuestionType": 3,
        "QuestionairName": "JOB SAFETY & ENVIRONMENTAL ANALYSIS"
    },
    {
        "QuestionHeader": "MMAW PRE-START SAFETY CHECKLIST",
        "QuestionID": 563,
        "QuestionSort": 1110,
        "QuestionTerminalType": 1,
        "QuestionText": "Will there be adequate ventilation once the welding process commences?",
        "QuestionType": 3,
        "QuestionairName": "JOB SAFETY & ENVIRONMENTAL ANALYSIS"
    },
    {
        "QuestionHeader": "MMAW PRE-START SAFETY CHECKLIST",
        "QuestionID": 564,
        "QuestionSort": 1120,
        "QuestionTerminalType": 1,
        "QuestionText": "Is my welding flash adequately controlled or screened?",
        "QuestionType": 3,
        "QuestionairName": "JOB SAFETY & ENVIRONMENTAL ANALYSIS"
    },
    {
        "QuestionHeader": "MMAW PRE-START SAFETY CHECKLIST",
        "QuestionID": 565,
        "QuestionSort": 1130,
        "QuestionTerminalType": 1,
        "QuestionText": "EQUIPMENT",
        "QuestionType": 9,
        "QuestionairName": "JOB SAFETY & ENVIRONMENTAL ANALYSIS"
    },
    {
        "QuestionHeader": "MMAW PRE-START SAFETY CHECKLIST",
        "QuestionID": 566,
        "QuestionSort": 1140,
        "QuestionTerminalType": 1,
        "QuestionText": "All electrical equipment inspected, tagged and within date?",
        "QuestionType": 3,
        "QuestionairName": "JOB SAFETY & ENVIRONMENTAL ANALYSIS"
    },
    {
        "QuestionHeader": "MMAW PRE-START SAFETY CHECKLIST",
        "QuestionID": 567,
        "QuestionSort": 1150,
        "QuestionTerminalType": 1,
        "QuestionText": "VRD and RCD fitted and operating?",
        "QuestionType": 3,
        "QuestionairName": "JOB SAFETY & ENVIRONMENTAL ANALYSIS"
    },
    {
        "QuestionHeader": "MMAW PRE-START SAFETY CHECKLIST",
        "QuestionID": 568,
        "QuestionSort": 1160,
        "QuestionTerminalType": 1,
        "QuestionText": "Is there adequate means of isolating the welding machine when changing  electrodes eg. Deadmans switch",
        "QuestionType": 3,
        "QuestionairName": "JOB SAFETY & ENVIRONMENTAL ANALYSIS"
    },
    {
        "QuestionHeader": "MMAW PRE-START SAFETY CHECKLIST",
        "QuestionID": 569,
        "QuestionSort": 1170,
        "QuestionTerminalType": 1,
        "QuestionText": "Welding return lead connected correctly",
        "QuestionType": 3,
        "QuestionairName": "JOB SAFETY & ENVIRONMENTAL ANALYSIS"
    },
    {
        "QuestionHeader": "MMAW PRE-START SAFETY CHECKLIST",
        "QuestionID": 570,
        "QuestionSort": 1180,
        "QuestionTerminalType": 1,
        "QuestionText": "Conductivity protection considered? (rubber mat)",
        "QuestionType": 3,
        "QuestionairName": "JOB SAFETY & ENVIRONMENTAL ANALYSIS"
    },
    {
        "QuestionHeader": "MMAW PRE-START SAFETY CHECKLIST",
        "QuestionID": 571,
        "QuestionSort": 1190,
        "QuestionTerminalType": 1,
        "QuestionText": "Is my MMAW machine DC?",
        "QuestionType": 3,
        "QuestionairName": "JOB SAFETY & ENVIRONMENTAL ANALYSIS"
    },
    {
        "QuestionHeader": "MMAW PRE-START SAFETY CHECKLIST",
        "QuestionID": 572,
        "QuestionSort": 1200,
        "QuestionTerminalType": 1,
        "QuestionText": "Welding environment classified (circle A, B or C)?|A|B|C",
        "QuestionType": 7,
        "QuestionairName": "JOB SAFETY & ENVIRONMENTAL ANALYSIS"
    },
    {
        "QuestionHeader": "MMAW PRE-START SAFETY CHECKLIST",
        "QuestionID": 573,
        "QuestionSort": 1210,
        "QuestionTerminalType": 1,
        "QuestionText": "Competent Person Sign:",
        "QuestionType": 5,
        "QuestionairName": "JOB SAFETY & ENVIRONMENTAL ANALYSIS"
    },
    {
        "QuestionHeader": "MMAW PRE-START SAFETY CHECKLIST",
        "QuestionID": 574,
        "QuestionSort": 1220,
        "QuestionTerminalType": 1,
        "QuestionText": "Supervisor Sign:",
        "QuestionType": 5,
        "QuestionairName": "JOB SAFETY & ENVIRONMENTAL ANALYSIS"
    },
    {
        "QuestionHeader": "Notify",
        "QuestionID": 513,
        "QuestionSort": 610,
        "QuestionTerminalType": 1,
        "QuestionText": "Operator",
        "QuestionType": 3,
        "QuestionairName": "JOB SAFETY & ENVIRONMENTAL ANALYSIS"
    },
    {
        "QuestionHeader": "Notify",
        "QuestionID": 514,
        "QuestionSort": 620,
        "QuestionTerminalType": 1,
        "QuestionText": "Shift Foreman",
        "QuestionType": 3,
        "QuestionairName": "JOB SAFETY & ENVIRONMENTAL ANALYSIS"
    },
    {
        "QuestionHeader": "Notify",
        "QuestionID": 515,
        "QuestionSort": 630,
        "QuestionTerminalType": 1,
        "QuestionText": "Area Supervisor",
        "QuestionType": 3,
        "QuestionairName": "JOB SAFETY & ENVIRONMENTAL ANALYSIS"
    },
    {
        "QuestionHeader": "Notify",
        "QuestionID": 516,
        "QuestionSort": 640,
        "QuestionTerminalType": 1,
        "QuestionText": "Engineering Supt.",
        "QuestionType": 3,
        "QuestionairName": "JOB SAFETY & ENVIRONMENTAL ANALYSIS"
    },
    {
        "QuestionHeader": "Notify",
        "QuestionID": 517,
        "QuestionSort": 650,
        "QuestionTerminalType": 1,
        "QuestionText": "Contractor Rep",
        "QuestionType": 3,
        "QuestionairName": "JOB SAFETY & ENVIRONMENTAL ANALYSIS"
    },
    {
        "QuestionHeader": "Notify",
        "QuestionID": 518,
        "QuestionSort": 660,
        "QuestionTerminalType": 1,
        "QuestionText": "Department Manager",
        "QuestionType": 3,
        "QuestionairName": "JOB SAFETY & ENVIRONMENTAL ANALYSIS"
    },
    {
        "QuestionHeader": "Notify",
        "QuestionID": 519,
        "QuestionSort": 670,
        "QuestionTerminalType": 1,
        "QuestionText": "Other",
        "QuestionType": 1,
        "QuestionairName": "JOB SAFETY & ENVIRONMENTAL ANALYSIS"
    },
    {
        "QuestionHeader": "Object - push, pull or lift objects",
        "QuestionID": 532,
        "QuestionSort": 800,
        "QuestionTerminalType": 1,
        "QuestionText": "Manual Handling Risk Identification Checklist:",
        "QuestionType": 9,
        "QuestionairName": "JOB SAFETY & ENVIRONMENTAL ANALYSIS"
    },
    {
        "QuestionHeader": "Object - push, pull or lift objects",
        "QuestionID": 533,
        "QuestionSort": 810,
        "QuestionTerminalType": 1,
        "QuestionText": "Push/pulling forces involved",
        "QuestionType": 3,
        "QuestionairName": "JOB SAFETY & ENVIRONMENTAL ANALYSIS"
    },
    {
        "QuestionHeader": "Object - push, pull or lift objects",
        "QuestionID": 534,
        "QuestionSort": 820,
        "QuestionTerminalType": 1,
        "QuestionText": "Push/pull forces required for a long period or for long distance",
        "QuestionType": 3,
        "QuestionairName": "JOB SAFETY & ENVIRONMENTAL ANALYSIS"
    },
    {
        "QuestionHeader": "Object - push, pull or lift objects",
        "QuestionID": 535,
        "QuestionSort": 830,
        "QuestionTerminalType": 1,
        "QuestionText": "The weight of the object is:",
        "QuestionType": 9,
        "QuestionairName": "JOB SAFETY & ENVIRONMENTAL ANALYSIS"
    },
    {
        "QuestionHeader": "Object - push, pull or lift objects",
        "QuestionID": 536,
        "QuestionSort": 840,
        "QuestionTerminalType": 1,
        "QuestionText": "more than 4.5 kg and handled from a seated position",
        "QuestionType": 3,
        "QuestionairName": "JOB SAFETY & ENVIRONMENTAL ANALYSIS"
    },
    {
        "QuestionHeader": "Object - push, pull or lift objects",
        "QuestionID": 537,
        "QuestionSort": 850,
        "QuestionTerminalType": 1,
        "QuestionText": "more than 16 kg & not handled while seated",
        "QuestionType": 3,
        "QuestionairName": "JOB SAFETY & ENVIRONMENTAL ANALYSIS"
    },
    {
        "QuestionHeader": "Object - push, pull or lift objects",
        "QuestionID": 538,
        "QuestionSort": 860,
        "QuestionTerminalType": 1,
        "QuestionText": "more than 55 kg.",
        "QuestionType": 3,
        "QuestionairName": "JOB SAFETY & ENVIRONMENTAL ANALYSIS"
    },
    {
        "QuestionHeader": "Object - push, pull or lift objects",
        "QuestionID": 539,
        "QuestionSort": 870,
        "QuestionTerminalType": 1,
        "QuestionText": "Note - Weight is not used to prescribe absolute limits, but is one of the important factors to be considered when assessing & controlling risk",
        "QuestionType": 9,
        "QuestionairName": "JOB SAFETY & ENVIRONMENTAL ANALYSIS"
    },
    {
        "QuestionHeader": "Object - push, pull or lift objects",
        "QuestionID": 540,
        "QuestionSort": 880,
        "QuestionTerminalType": 1,
        "QuestionText": "The object is difficult or awkward to grip or handle eg. size, shape, temperature, instability",
        "QuestionType": 3,
        "QuestionairName": "JOB SAFETY & ENVIRONMENTAL ANALYSIS"
    },
    {
        "QuestionHeader": "Permits required",
        "QuestionID": 479,
        "QuestionSort": 270,
        "QuestionTerminalType": 1,
        "QuestionText": "Confined space",
        "QuestionType": 3,
        "QuestionairName": "JOB SAFETY & ENVIRONMENTAL ANALYSIS"
    },
    {
        "QuestionHeader": "Permits required",
        "QuestionID": 480,
        "QuestionSort": 280,
        "QuestionTerminalType": 1,
        "QuestionText": "Working at Heights",
        "QuestionType": 3,
        "QuestionairName": "JOB SAFETY & ENVIRONMENTAL ANALYSIS"
    },
    {
        "QuestionHeader": "Permits required",
        "QuestionID": 481,
        "QuestionSort": 290,
        "QuestionTerminalType": 1,
        "QuestionText": "Excavation /penetration",
        "QuestionType": 3,
        "QuestionairName": "JOB SAFETY & ENVIRONMENTAL ANALYSIS"
    },
    {
        "QuestionHeader": "Permits required",
        "QuestionID": 482,
        "QuestionSort": 300,
        "QuestionTerminalType": 1,
        "QuestionText": "Hot Work",
        "QuestionType": 3,
        "QuestionairName": "JOB SAFETY & ENVIRONMENTAL ANALYSIS"
    },
    {
        "QuestionHeader": "Permits required",
        "QuestionID": 483,
        "QuestionSort": 310,
        "QuestionTerminalType": 1,
        "QuestionText": "Authority to Work (ATW)",
        "QuestionType": 3,
        "QuestionairName": "JOB SAFETY & ENVIRONMENTAL ANALYSIS"
    },
    {
        "QuestionHeader": "Permits required",
        "QuestionID": 484,
        "QuestionSort": 320,
        "QuestionTerminalType": 1,
        "QuestionText": "Work Clearance",
        "QuestionType": 3,
        "QuestionairName": "JOB SAFETY & ENVIRONMENTAL ANALYSIS"
    },
    {
        "QuestionHeader": "Permits required",
        "QuestionID": 485,
        "QuestionSort": 330,
        "QuestionTerminalType": 1,
        "QuestionText": "High Voltage access",
        "QuestionType": 3,
        "QuestionairName": "JOB SAFETY & ENVIRONMENTAL ANALYSIS"
    },
    {
        "QuestionHeader": "Permits required",
        "QuestionID": 486,
        "QuestionSort": 340,
        "QuestionTerminalType": 1,
        "QuestionText": "Work order",
        "QuestionType": 3,
        "QuestionairName": "JOB SAFETY & ENVIRONMENTAL ANALYSIS"
    },
    {
        "QuestionHeader": "Permits required",
        "QuestionID": 487,
        "QuestionSort": 350,
        "QuestionTerminalType": 1,
        "QuestionText": "Restricted access",
        "QuestionType": 3,
        "QuestionairName": "JOB SAFETY & ENVIRONMENTAL ANALYSIS"
    },
    {
        "QuestionHeader": "Permits required",
        "QuestionID": 488,
        "QuestionSort": 360,
        "QuestionTerminalType": 1,
        "QuestionText": "Other",
        "QuestionType": 1,
        "QuestionairName": "JOB SAFETY & ENVIRONMENTAL ANALYSIS"
    },
    {
        "QuestionHeader": "Photos",
        "QuestionID": 744,
        "QuestionSort": 500,
        "QuestionTerminalType": 1,
        "QuestionText": "Installation Photos",
        "QuestionType": 4,
        "QuestionairName": "DamstraHolcim LV Electrical Work Risk Assesment"
    },
    {
        "QuestionHeader": "Photos",
        "QuestionID": 745,
        "QuestionSort": 510,
        "QuestionTerminalType": 1,
        "QuestionText": "Optional Drawing of site",
        "QuestionType": 6,
        "QuestionairName": "DamstraHolcim LV Electrical Work Risk Assesment"
    },
    {
        "QuestionHeader": "PPE / Precautions to observe for this work task",
        "QuestionID": 496,
        "QuestionSort": 440,
        "QuestionTerminalType": 1,
        "QuestionText": "Gloves",
        "QuestionType": 3,
        "QuestionairName": "JOB SAFETY & ENVIRONMENTAL ANALYSIS"
    },
    {
        "QuestionHeader": "PPE / Precautions to observe for this work task",
        "QuestionID": 497,
        "QuestionSort": 450,
        "QuestionTerminalType": 1,
        "QuestionText": "Hearing Protection",
        "QuestionType": 3,
        "QuestionairName": "JOB SAFETY & ENVIRONMENTAL ANALYSIS"
    },
    {
        "QuestionHeader": "PPE / Precautions to observe for this work task",
        "QuestionID": 498,
        "QuestionSort": 460,
        "QuestionTerminalType": 1,
        "QuestionText": "Face Shield",
        "QuestionType": 3,
        "QuestionairName": "JOB SAFETY & ENVIRONMENTAL ANALYSIS"
    },
    {
        "QuestionHeader": "PPE / Precautions to observe for this work task",
        "QuestionID": 499,
        "QuestionSort": 470,
        "QuestionTerminalType": 1,
        "QuestionText": "Acid Suit",
        "QuestionType": 3,
        "QuestionairName": "JOB SAFETY & ENVIRONMENTAL ANALYSIS"
    },
    {
        "QuestionHeader": "PPE / Precautions to observe for this work task",
        "QuestionID": 500,
        "QuestionSort": 480,
        "QuestionTerminalType": 1,
        "QuestionText": "Harness",
        "QuestionType": 3,
        "QuestionairName": "JOB SAFETY & ENVIRONMENTAL ANALYSIS"
    },
    {
        "QuestionHeader": "PPE / Precautions to observe for this work task",
        "QuestionID": 501,
        "QuestionSort": 490,
        "QuestionTerminalType": 1,
        "QuestionText": "High Visibility Vest",
        "QuestionType": 3,
        "QuestionairName": "JOB SAFETY & ENVIRONMENTAL ANALYSIS"
    },
    {
        "QuestionHeader": "PPE / Precautions to observe for this work task",
        "QuestionID": 502,
        "QuestionSort": 500,
        "QuestionTerminalType": 1,
        "QuestionText": "Work Place Lighting",
        "QuestionType": 3,
        "QuestionairName": "JOB SAFETY & ENVIRONMENTAL ANALYSIS"
    },
    {
        "QuestionHeader": "PPE / Precautions to observe for this work task",
        "QuestionID": 503,
        "QuestionSort": 510,
        "QuestionTerminalType": 1,
        "QuestionText": "Fire Extinguishers",
        "QuestionType": 3,
        "QuestionairName": "JOB SAFETY & ENVIRONMENTAL ANALYSIS"
    },
    {
        "QuestionHeader": "PPE / Precautions to observe for this work task",
        "QuestionID": 504,
        "QuestionSort": 520,
        "QuestionTerminalType": 1,
        "QuestionText": "Roped Area/Barricades",
        "QuestionType": 3,
        "QuestionairName": "JOB SAFETY & ENVIRONMENTAL ANALYSIS"
    },
    {
        "QuestionHeader": "PPE / Precautions to observe for this work task",
        "QuestionID": 505,
        "QuestionSort": 530,
        "QuestionTerminalType": 1,
        "QuestionText": "Routing of hoses, leads",
        "QuestionType": 3,
        "QuestionairName": "JOB SAFETY & ENVIRONMENTAL ANALYSIS"
    },
    {
        "QuestionHeader": "PPE / Precautions to observe for this work task",
        "QuestionID": 506,
        "QuestionSort": 540,
        "QuestionTerminalType": 1,
        "QuestionText": "System Purged",
        "QuestionType": 3,
        "QuestionairName": "JOB SAFETY & ENVIRONMENTAL ANALYSIS"
    },
    {
        "QuestionHeader": "PPE / Precautions to observe for this work task",
        "QuestionID": 507,
        "QuestionSort": 550,
        "QuestionTerminalType": 1,
        "QuestionText": "Ventilation",
        "QuestionType": 3,
        "QuestionairName": "JOB SAFETY & ENVIRONMENTAL ANALYSIS"
    },
    {
        "QuestionHeader": "PPE / Precautions to observe for this work task",
        "QuestionID": 508,
        "QuestionSort": 560,
        "QuestionTerminalType": 1,
        "QuestionText": "Lighting",
        "QuestionType": 3,
        "QuestionairName": "JOB SAFETY & ENVIRONMENTAL ANALYSIS"
    },
    {
        "QuestionHeader": "PPE / Precautions to observe for this work task",
        "QuestionID": 509,
        "QuestionSort": 570,
        "QuestionTerminalType": 1,
        "QuestionText": "ELCB",
        "QuestionType": 3,
        "QuestionairName": "JOB SAFETY & ENVIRONMENTAL ANALYSIS"
    },
    {
        "QuestionHeader": "PPE / Precautions to observe for this work task",
        "QuestionID": 510,
        "QuestionSort": 580,
        "QuestionTerminalType": 1,
        "QuestionText": "Warning Tags",
        "QuestionType": 3,
        "QuestionairName": "JOB SAFETY & ENVIRONMENTAL ANALYSIS"
    },
    {
        "QuestionHeader": "PPE / Precautions to observe for this work task",
        "QuestionID": 511,
        "QuestionSort": 590,
        "QuestionTerminalType": 1,
        "QuestionText": "Personal Locks",
        "QuestionType": 3,
        "QuestionairName": "JOB SAFETY & ENVIRONMENTAL ANALYSIS"
    },
    {
        "QuestionHeader": "PPE / Precautions to observe for this work task",
        "QuestionID": 512,
        "QuestionSort": 600,
        "QuestionTerminalType": 1,
        "QuestionText": "Other",
        "QuestionType": 1,
        "QuestionairName": "JOB SAFETY & ENVIRONMENTAL ANALYSIS"
    },
    {
        "QuestionHeader": "Record modifications to JSEA ",
        "QuestionID": 673,
        "QuestionSort": 2210,
        "QuestionTerminalType": 1,
        "QuestionText": "i.e. Change to a job step or new job step, new hazard, risk or risk control",
        "QuestionType": 9,
        "QuestionairName": "JOB SAFETY & ENVIRONMENTAL ANALYSIS"
    },
    {
        "QuestionHeader": "Record modifications to JSEA ",
        "QuestionID": 674,
        "QuestionSort": 2220,
        "QuestionTerminalType": 1,
        "QuestionText": "Comments / suggestions and include the job/step",
        "QuestionType": 1,
        "QuestionairName": "JOB SAFETY & ENVIRONMENTAL ANALYSIS"
    },
    {
        "QuestionHeader": "Record modifications to JSEA ",
        "QuestionID": 675,
        "QuestionSort": 2230,
        "QuestionTerminalType": 1,
        "QuestionText": "Comments / suggestions and include the job/step",
        "QuestionType": 1,
        "QuestionairName": "JOB SAFETY & ENVIRONMENTAL ANALYSIS"
    },
    {
        "QuestionHeader": "Record modifications to JSEA ",
        "QuestionID": 676,
        "QuestionSort": 2240,
        "QuestionTerminalType": 1,
        "QuestionText": "Comments / suggestions and include the job/step",
        "QuestionType": 1,
        "QuestionairName": "JOB SAFETY & ENVIRONMENTAL ANALYSIS"
    },
    {
        "QuestionHeader": "Record modifications to JSEA ",
        "QuestionID": 677,
        "QuestionSort": 2250,
        "QuestionTerminalType": 1,
        "QuestionText": "Comments / suggestions and include the job/step",
        "QuestionType": 1,
        "QuestionairName": "JOB SAFETY & ENVIRONMENTAL ANALYSIS"
    },
    {
        "QuestionHeader": "Record modifications to JSEA ",
        "QuestionID": 678,
        "QuestionSort": 2260,
        "QuestionTerminalType": 1,
        "QuestionText": "Comments / suggestions and include the job/step",
        "QuestionType": 1,
        "QuestionairName": "JOB SAFETY & ENVIRONMENTAL ANALYSIS"
    },
    {
        "QuestionHeader": "Responsibility for Supervision",
        "QuestionID": 597,
        "QuestionSort": 1450,
        "QuestionTerminalType": 1,
        "QuestionText": "The following personnel have responsibility for supervision of the work and the inspection and approval of work areas, work methods, protective measures, plant equipment and power tools.",
        "QuestionType": 9,
        "QuestionairName": "JOB SAFETY & ENVIRONMENTAL ANALYSIS"
    },
    {
        "QuestionHeader": "Responsibility for Supervision",
        "QuestionID": 598,
        "QuestionSort": 1460,
        "QuestionTerminalType": 1,
        "QuestionText": "Name, Position and company",
        "QuestionType": 5,
        "QuestionairName": "JOB SAFETY & ENVIRONMENTAL ANALYSIS"
    },
    {
        "QuestionHeader": "Responsibility for Supervision",
        "QuestionID": 599,
        "QuestionSort": 1470,
        "QuestionTerminalType": 1,
        "QuestionText": "Name, Position and company",
        "QuestionType": 5,
        "QuestionairName": "JOB SAFETY & ENVIRONMENTAL ANALYSIS"
    },
    {
        "QuestionHeader": "Responsibility for Supervision",
        "QuestionID": 600,
        "QuestionSort": 1480,
        "QuestionTerminalType": 1,
        "QuestionText": "Name, Position and company",
        "QuestionType": 5,
        "QuestionairName": "JOB SAFETY & ENVIRONMENTAL ANALYSIS"
    },
    {
        "QuestionHeader": "Responsibility for Supervision",
        "QuestionID": 601,
        "QuestionSort": 1490,
        "QuestionTerminalType": 1,
        "QuestionText": "Name, Position and company",
        "QuestionType": 5,
        "QuestionairName": "JOB SAFETY & ENVIRONMENTAL ANALYSIS"
    },
    {
        "QuestionHeader": "Responsibility for Supervision",
        "QuestionID": 602,
        "QuestionSort": 1500,
        "QuestionTerminalType": 1,
        "QuestionText": "Legislation, Standards, Codes of Practice, Guidelines:||Work Health & Safety Act 2011||Work Health & Safety Regulation 2011||Safe Work Australia Code of Practice – Managing the risks of fall at workplace||AS/NZS 1891.1 Industrial fall arrest systems & devices – Pt1- Safety belts & Harnesses||||Thomas & Coffey OH&S Management System – List of Standing Instructions Relevant to this Job||SIN No. 15 Emergency Response Plan||SIN No. 37 Barricades",
        "QuestionType": 9,
        "QuestionairName": "JOB SAFETY & ENVIRONMENTAL ANALYSIS"
    },
    {
        "QuestionHeader": "Responsibility for Supervision",
        "QuestionID": 603,
        "QuestionSort": 1510,
        "QuestionTerminalType": 1,
        "QuestionText": "Legislation, Standards, Codes of Practice, Guidelines:||Reference to Endeavour Energy Documents on Environmental Standard||||Thomas & Coffey OH&S Management System – List of Standing Instructions Relevant to this Job||SIN No. 16 Job Safety Analysis||SIN No. 30 Lifting Equipment",
        "QuestionType": 9,
        "QuestionairName": "JOB SAFETY & ENVIRONMENTAL ANALYSIS"
    },
    {
        "QuestionHeader": "Responsibility for Supervision",
        "QuestionID": 604,
        "QuestionSort": 1520,
        "QuestionTerminalType": 1,
        "QuestionText": "Legislation, Standards, Codes of Practice, Guidelines:||Endeavour Energy Health and Safety Documents||||Thomas & Coffey OH&S Management System – List of Standing Instructions Relevant to this Job||SIN No. 22 Housekeeping||SIN No. 28 Isolation",
        "QuestionType": 9,
        "QuestionairName": "JOB SAFETY & ENVIRONMENTAL ANALYSIS"
    },
    {
        "QuestionHeader": "Responsibility for Supervision",
        "QuestionID": 605,
        "QuestionSort": 1530,
        "QuestionTerminalType": 1,
        "QuestionText": "Legislation, Standards, Codes of Practice, Guidelines:||Council Traffic management plan and road occupancy license||||Thomas & Coffey OH&S Management System – List of Standing Instructions Relevant to this Job||SIN No. 14 Material Safety Data Sheet",
        "QuestionType": 9,
        "QuestionairName": "JOB SAFETY & ENVIRONMENTAL ANALYSIS"
    },
    {
        "QuestionHeader": "Responsibility for Supervision",
        "QuestionID": 606,
        "QuestionSort": 1540,
        "QuestionTerminalType": 1,
        "QuestionText": "Legislation, Standards, Codes of Practice, Guidelines:||Water main cut-in technical service standard||||Thomas & Coffey OH&S Management System – List of Standing Instructions Relevant to this Job||SIN No. 31 Manual Handling||SIN No. 24 Excavation/Open Pits",
        "QuestionType": 9,
        "QuestionairName": "JOB SAFETY & ENVIRONMENTAL ANALYSIS"
    },
    {
        "QuestionHeader": "Responsibility for Supervision",
        "QuestionID": 607,
        "QuestionSort": 1550,
        "QuestionTerminalType": 1,
        "QuestionText": "Legislation, Standards, Codes of Practice, Guidelines:||Work Cover Guide – Work Near Underground Assets||||Thomas & Coffey OH&S Management System – List of Standing Instructions Relevant to this Job||SIN No. 35 Power tools, portable plant & equipment||SIN No. 32 Hazardous Substances||SIN No. 36 Hot Work||SIN No. 34 Asbestos Containing Material",
        "QuestionType": 9,
        "QuestionairName": "JOB SAFETY & ENVIRONMENTAL ANALYSIS"
    },
    {
        "QuestionHeader": "Risk Assesment",
        "QuestionID": 695,
        "QuestionSort": 10,
        "QuestionTerminalType": 1,
        "QuestionText": "Test before you Touch - No Live Work",
        "QuestionType": 9,
        "QuestionairName": "DamstraHolcim LV Electrical Work Risk Assesment"
    },
    {
        "QuestionHeader": "Risk Assesment",
        "QuestionID": 696,
        "QuestionSort": 20,
        "QuestionTerminalType": 1,
        "QuestionText": "This Low Voltage Electrical work Risk Assessment is required to be completed by persons that intend to perform the electrical work",
        "QuestionType": 9,
        "QuestionairName": "DamstraHolcim LV Electrical Work Risk Assesment"
    },
    {
        "QuestionHeader": "Risk Assesment",
        "QuestionID": 697,
        "QuestionSort": 30,
        "QuestionTerminalType": 1,
        "QuestionText": "HA Risk Management Process ",
        "QuestionType": 9,
        "QuestionairName": "DamstraHolcim LV Electrical Work Risk Assesment"
    },
    {
        "QuestionHeader": "Risk Assesment",
        "QuestionID": 698,
        "QuestionSort": 40,
        "QuestionTerminalType": 1,
        "QuestionText": "The Risk Management process of identify, Access, Control and Review will be followed when conducting these risk assessments. The aim is to eliminate the risk, or reduce the risk to an acceptable level",
        "QuestionType": 9,
        "QuestionairName": "DamstraHolcim LV Electrical Work Risk Assesment"
    },
    {
        "QuestionHeader": "Risk Assesment",
        "QuestionID": 699,
        "QuestionSort": 50,
        "QuestionTerminalType": 1,
        "QuestionText": "Identification ",
        "QuestionType": 9,
        "QuestionairName": "DamstraHolcim LV Electrical Work Risk Assesment"
    },
    {
        "QuestionHeader": "Risk Assesment",
        "QuestionID": 700,
        "QuestionSort": 60,
        "QuestionTerminalType": 1,
        "QuestionText": "You must identify all hazards associated with the task",
        "QuestionType": 9,
        "QuestionairName": "DamstraHolcim LV Electrical Work Risk Assesment"
    },
    {
        "QuestionHeader": "Risk Assesment",
        "QuestionID": 701,
        "QuestionSort": 70,
        "QuestionTerminalType": 1,
        "QuestionText": "Assess ",
        "QuestionType": 9,
        "QuestionairName": "DamstraHolcim LV Electrical Work Risk Assesment"
    },
    {
        "QuestionHeader": "Risk Assesment",
        "QuestionID": 702,
        "QuestionSort": 80,
        "QuestionTerminalType": 1,
        "QuestionText": "You must assess risks associated with all identified hazards for the task.",
        "QuestionType": 9,
        "QuestionairName": "DamstraHolcim LV Electrical Work Risk Assesment"
    },
    {
        "QuestionHeader": "Risk Assesment",
        "QuestionID": 703,
        "QuestionSort": 90,
        "QuestionTerminalType": 1,
        "QuestionText": "Control",
        "QuestionType": 9,
        "QuestionairName": "DamstraHolcim LV Electrical Work Risk Assesment"
    },
    {
        "QuestionHeader": "Risk Assesment",
        "QuestionID": 704,
        "QuestionSort": 100,
        "QuestionTerminalType": 1,
        "QuestionText": "The aim is to eliminate the risk or reduce the risk to an acceptable level using the hierarchy of controls to select suitable controls.",
        "QuestionType": 9,
        "QuestionairName": "DamstraHolcim LV Electrical Work Risk Assesment"
    },
    {
        "QuestionHeader": "Risk Assesment",
        "QuestionID": 705,
        "QuestionSort": 110,
        "QuestionTerminalType": 1,
        "QuestionText": "Review Controls",
        "QuestionType": 9,
        "QuestionairName": "DamstraHolcim LV Electrical Work Risk Assesment"
    },
    {
        "QuestionHeader": "Risk Assesment",
        "QuestionID": 706,
        "QuestionSort": 120,
        "QuestionTerminalType": 1,
        "QuestionText": "Review Controls need to be reviewed shortly after implementation to ensure  controls selected adequately control the risks, controls do no create another hazard, controls still allow a person to do a task safety",
        "QuestionType": 9,
        "QuestionairName": "DamstraHolcim LV Electrical Work Risk Assesment"
    },
    {
        "QuestionHeader": "Risk Assesment",
        "QuestionID": 707,
        "QuestionSort": 130,
        "QuestionTerminalType": 1,
        "QuestionText": "Note",
        "QuestionType": 9,
        "QuestionairName": "DamstraHolcim LV Electrical Work Risk Assesment"
    },
    {
        "QuestionHeader": "Risk Assesment",
        "QuestionID": 708,
        "QuestionSort": 140,
        "QuestionTerminalType": 1,
        "QuestionText": "All electrical work performed on site shall be perform appropriately quailed persons. Where work is to be performed by an apprentice, this work shall be suitably supervised by fully qualified person",
        "QuestionType": 9,
        "QuestionairName": "DamstraHolcim LV Electrical Work Risk Assesment"
    },
    {
        "QuestionHeader": "Risk Assesment",
        "QuestionID": 709,
        "QuestionSort": 150,
        "QuestionTerminalType": 1,
        "QuestionText": "Access to low voltage electrical equipment shall be restricted to qualified electricians.The safety observer must be competent in LV electrical rescue and cardio-pulmonary resuscitation.",
        "QuestionType": 9,
        "QuestionairName": "DamstraHolcim LV Electrical Work Risk Assesment"
    },
    {
        "QuestionHeader": "Sign",
        "QuestionID": 729,
        "QuestionSort": 350,
        "QuestionTerminalType": 1,
        "QuestionText": "Test before you Touch - No Live Work",
        "QuestionType": 9,
        "QuestionairName": "DamstraHolcim LV Electrical Work Risk Assesment"
    },
    {
        "QuestionHeader": "Sign",
        "QuestionID": 730,
        "QuestionSort": 360,
        "QuestionTerminalType": 1,
        "QuestionText": "All persons working under this risk assessment must sign off to indicate that they fully understand and will follow it.",
        "QuestionType": 9,
        "QuestionairName": "DamstraHolcim LV Electrical Work Risk Assesment"
    },
    {
        "QuestionHeader": "Sign",
        "QuestionID": 731,
        "QuestionSort": 370,
        "QuestionTerminalType": 1,
        "QuestionText": "Person Sign",
        "QuestionType": 5,
        "QuestionairName": "DamstraHolcim LV Electrical Work Risk Assesment"
    },
    {
        "QuestionHeader": "Sign",
        "QuestionID": 732,
        "QuestionSort": 380,
        "QuestionTerminalType": 1,
        "QuestionText": "Person Sign",
        "QuestionType": 5,
        "QuestionairName": "DamstraHolcim LV Electrical Work Risk Assesment"
    },
    {
        "QuestionHeader": "Sign",
        "QuestionID": 733,
        "QuestionSort": 390,
        "QuestionTerminalType": 1,
        "QuestionText": "Person Sign",
        "QuestionType": 5,
        "QuestionairName": "DamstraHolcim LV Electrical Work Risk Assesment"
    },
    {
        "QuestionHeader": "Sign",
        "QuestionID": 734,
        "QuestionSort": 400,
        "QuestionTerminalType": 1,
        "QuestionText": "Person Sign",
        "QuestionType": 5,
        "QuestionairName": "DamstraHolcim LV Electrical Work Risk Assesment"
    },
    {
        "QuestionHeader": "Sign",
        "QuestionID": 735,
        "QuestionSort": 410,
        "QuestionTerminalType": 1,
        "QuestionText": "Person Sign",
        "QuestionType": 5,
        "QuestionairName": "DamstraHolcim LV Electrical Work Risk Assesment"
    },
    {
        "QuestionHeader": "Sign",
        "QuestionID": 736,
        "QuestionSort": 420,
        "QuestionTerminalType": 1,
        "QuestionText": "Person Sign",
        "QuestionType": 5,
        "QuestionairName": "DamstraHolcim LV Electrical Work Risk Assesment"
    },
    {
        "QuestionHeader": "Sign",
        "QuestionID": 737,
        "QuestionSort": 430,
        "QuestionTerminalType": 1,
        "QuestionText": "Person Sign",
        "QuestionType": 5,
        "QuestionairName": "DamstraHolcim LV Electrical Work Risk Assesment"
    },
    {
        "QuestionHeader": "Sign",
        "QuestionID": 738,
        "QuestionSort": 440,
        "QuestionTerminalType": 1,
        "QuestionText": "Person Sign",
        "QuestionType": 5,
        "QuestionairName": "DamstraHolcim LV Electrical Work Risk Assesment"
    },
    {
        "QuestionHeader": "Sign",
        "QuestionID": 739,
        "QuestionSort": 450,
        "QuestionTerminalType": 1,
        "QuestionText": "Any task requires exposure to energised parts the electrical worker is aware of all the requirements and have answered YES to all sections.",
        "QuestionType": 5,
        "QuestionairName": "DamstraHolcim LV Electrical Work Risk Assesment"
    },
    {
        "QuestionHeader": "Sign",
        "QuestionID": 740,
        "QuestionSort": 460,
        "QuestionTerminalType": 1,
        "QuestionText": "All relevant licences and competency evidence is present on site or sighted",
        "QuestionType": 5,
        "QuestionairName": "DamstraHolcim LV Electrical Work Risk Assesment"
    },
    {
        "QuestionHeader": "Sign",
        "QuestionID": 741,
        "QuestionSort": 470,
        "QuestionTerminalType": 1,
        "QuestionText": "Holcim Electrical Risk Assessment has been fully completed by the electrical worker/s performing the task",
        "QuestionType": 5,
        "QuestionairName": "DamstraHolcim LV Electrical Work Risk Assesment"
    },
    {
        "QuestionHeader": "Sign",
        "QuestionID": 742,
        "QuestionSort": 480,
        "QuestionTerminalType": 1,
        "QuestionText": "Holcim Personel",
        "QuestionType": 9,
        "QuestionairName": "DamstraHolcim LV Electrical Work Risk Assesment"
    },
    {
        "QuestionHeader": "Sign",
        "QuestionID": 743,
        "QuestionSort": 490,
        "QuestionTerminalType": 1,
        "QuestionText": "Holcim Authorised Person",
        "QuestionType": 5,
        "QuestionairName": "DamstraHolcim LV Electrical Work Risk Assesment"
    },
    {
        "QuestionHeader": "Site Information",
        "QuestionID": 710,
        "QuestionSort": 160,
        "QuestionTerminalType": 1,
        "QuestionText": "Test before you Touch - No Live Work",
        "QuestionType": 9,
        "QuestionairName": "DamstraHolcim LV Electrical Work Risk Assesment"
    },
    {
        "QuestionHeader": "Site Information",
        "QuestionID": 711,
        "QuestionSort": 170,
        "QuestionTerminalType": 1,
        "QuestionText": "Site and Location of Task: List if more then 1 location",
        "QuestionType": 1,
        "QuestionairName": "DamstraHolcim LV Electrical Work Risk Assesment"
    },
    {
        "QuestionHeader": "Site Information",
        "QuestionID": 746,
        "QuestionSort": 175,
        "QuestionTerminalType": 1,
        "QuestionText": "Site Contact and Phone number",
        "QuestionType": 1,
        "QuestionairName": "DamstraHolcim LV Electrical Work Risk Assesment"
    },
    {
        "QuestionHeader": "Site Information",
        "QuestionID": 712,
        "QuestionSort": 180,
        "QuestionTerminalType": 1,
        "QuestionText": "Task to be performed",
        "QuestionType": 1,
        "QuestionairName": "DamstraHolcim LV Electrical Work Risk Assesment"
    },
    {
        "QuestionHeader": "Site Information",
        "QuestionID": 713,
        "QuestionSort": 190,
        "QuestionTerminalType": 1,
        "QuestionText": "Personell to preform task and Competency",
        "QuestionType": 1,
        "QuestionairName": "DamstraHolcim LV Electrical Work Risk Assesment"
    },
    {
        "QuestionHeader": "Site Information",
        "QuestionID": 714,
        "QuestionSort": 200,
        "QuestionTerminalType": 1,
        "QuestionText": "Personell to preform task and Competency",
        "QuestionType": 1,
        "QuestionairName": "DamstraHolcim LV Electrical Work Risk Assesment"
    },
    {
        "QuestionHeader": "Site Information",
        "QuestionID": 715,
        "QuestionSort": 210,
        "QuestionTerminalType": 1,
        "QuestionText": "Personell to preform task and Competency",
        "QuestionType": 1,
        "QuestionairName": "DamstraHolcim LV Electrical Work Risk Assesment"
    },
    {
        "QuestionHeader": "Site Information",
        "QuestionID": 716,
        "QuestionSort": 220,
        "QuestionTerminalType": 1,
        "QuestionText": "Personell to preform task and Competency",
        "QuestionType": 1,
        "QuestionairName": "DamstraHolcim LV Electrical Work Risk Assesment"
    },
    {
        "QuestionHeader": "Site Information",
        "QuestionID": 717,
        "QuestionSort": 230,
        "QuestionTerminalType": 1,
        "QuestionText": "Personell to preform task and Competency",
        "QuestionType": 1,
        "QuestionairName": "DamstraHolcim LV Electrical Work Risk Assesment"
    },
    {
        "QuestionHeader": "Site Information",
        "QuestionID": 718,
        "QuestionSort": 240,
        "QuestionTerminalType": 1,
        "QuestionText": "Personell to preform task and Competency",
        "QuestionType": 1,
        "QuestionairName": "DamstraHolcim LV Electrical Work Risk Assesment"
    },
    {
        "QuestionHeader": "Site Information",
        "QuestionID": 719,
        "QuestionSort": 250,
        "QuestionTerminalType": 1,
        "QuestionText": "Safety Observer (if required)",
        "QuestionType": 1,
        "QuestionairName": "DamstraHolcim LV Electrical Work Risk Assesment"
    },
    {
        "QuestionHeader": "Supervisor / responsible person accepting control of the work task ",
        "QuestionID": 682,
        "QuestionSort": 2300,
        "QuestionTerminalType": 1,
        "QuestionText": "Signing this section indicates that the person taking control of the work task has reviewed the contents of the JSEA, is aware of any JSEA modifications and understands the information contained in the handover section of this form.",
        "QuestionType": 9,
        "QuestionairName": "JOB SAFETY & ENVIRONMENTAL ANALYSIS"
    },
    {
        "QuestionHeader": "Supervisor / responsible person accepting control of the work task ",
        "QuestionID": 683,
        "QuestionSort": 2310,
        "QuestionTerminalType": 1,
        "QuestionText": "Name of Supervisor/Responsible Person taking control of the work task",
        "QuestionType": 5,
        "QuestionairName": "JOB SAFETY & ENVIRONMENTAL ANALYSIS"
    },
    {
        "QuestionHeader": "Task",
        "QuestionID": 525,
        "QuestionSort": 730,
        "QuestionTerminalType": 1,
        "QuestionText": "Manual Handling Risk Identification Checklist:",
        "QuestionType": 9,
        "QuestionairName": "JOB SAFETY & ENVIRONMENTAL ANALYSIS"
    },
    {
        "QuestionHeader": "Task",
        "QuestionID": 526,
        "QuestionSort": 740,
        "QuestionTerminalType": 1,
        "QuestionText": "Is there frequent or prolonged :",
        "QuestionType": 9,
        "QuestionairName": "JOB SAFETY & ENVIRONMENTAL ANALYSIS"
    },
    {
        "QuestionHeader": "Task",
        "QuestionID": 527,
        "QuestionSort": 750,
        "QuestionTerminalType": 1,
        "QuestionText": "Bending",
        "QuestionType": 3,
        "QuestionairName": "JOB SAFETY & ENVIRONMENTAL ANALYSIS"
    },
    {
        "QuestionHeader": "Task",
        "QuestionID": 528,
        "QuestionSort": 760,
        "QuestionTerminalType": 1,
        "QuestionText": "Reaching above the shoulder",
        "QuestionType": 3,
        "QuestionairName": "JOB SAFETY & ENVIRONMENTAL ANALYSIS"
    },
    {
        "QuestionHeader": "Task",
        "QuestionID": 529,
        "QuestionSort": 770,
        "QuestionTerminalType": 1,
        "QuestionText": "Twisting",
        "QuestionType": 3,
        "QuestionairName": "JOB SAFETY & ENVIRONMENTAL ANALYSIS"
    },
    {
        "QuestionHeader": "Task",
        "QuestionID": 530,
        "QuestionSort": 780,
        "QuestionTerminalType": 1,
        "QuestionText": "Squatting",
        "QuestionType": 3,
        "QuestionairName": "JOB SAFETY & ENVIRONMENTAL ANALYSIS"
    },
    {
        "QuestionHeader": "Task",
        "QuestionID": 531,
        "QuestionSort": 790,
        "QuestionTerminalType": 1,
        "QuestionText": "Awkward posture",
        "QuestionType": 3,
        "QuestionairName": "JOB SAFETY & ENVIRONMENTAL ANALYSIS"
    },
    {
        "QuestionHeader": "Work Environment",
        "QuestionID": 541,
        "QuestionSort": 890,
        "QuestionTerminalType": 1,
        "QuestionText": "Manual Handling Risk Identification Checklist:",
        "QuestionType": 9,
        "QuestionairName": "JOB SAFETY & ENVIRONMENTAL ANALYSIS"
    },
    {
        "QuestionHeader": "Work Environment",
        "QuestionID": 542,
        "QuestionSort": 900,
        "QuestionTerminalType": 1,
        "QuestionText": "The task performed in a restricted / confined area",
        "QuestionType": 3,
        "QuestionairName": "JOB SAFETY & ENVIRONMENTAL ANALYSIS"
    },
    {
        "QuestionHeader": "Work Environment",
        "QuestionID": 543,
        "QuestionSort": 910,
        "QuestionTerminalType": 1,
        "QuestionText": "Are floors or surfaces cluttered, uneven, slippery or otherwise unsafe.",
        "QuestionType": 3,
        "QuestionairName": "JOB SAFETY & ENVIRONMENTAL ANALYSIS"
    },
    {
        "QuestionHeader": "Work Method Statement",
        "QuestionID": 608,
        "QuestionSort": 1560,
        "QuestionTerminalType": 1,
        "QuestionText": "Additional Health and Safety Precautions",
        "QuestionType": 9,
        "QuestionairName": "JOB SAFETY & ENVIRONMENTAL ANALYSIS"
    },
    {
        "QuestionHeader": "Work Method Statement",
        "QuestionID": 609,
        "QuestionSort": 1570,
        "QuestionTerminalType": 1,
        "QuestionText": "Tick when Training Required:",
        "QuestionType": 9,
        "QuestionairName": "JOB SAFETY & ENVIRONMENTAL ANALYSIS"
    },
    {
        "QuestionHeader": "Work Method Statement",
        "QuestionID": 610,
        "QuestionSort": 1580,
        "QuestionTerminalType": 1,
        "QuestionText": "Construction Industry Induction",
        "QuestionType": 3,
        "QuestionairName": "JOB SAFETY & ENVIRONMENTAL ANALYSIS"
    },
    {
        "QuestionHeader": "Work Method Statement",
        "QuestionID": 611,
        "QuestionSort": 1590,
        "QuestionTerminalType": 1,
        "QuestionText": "Task Specific",
        "QuestionType": 3,
        "QuestionairName": "JOB SAFETY & ENVIRONMENTAL ANALYSIS"
    },
    {
        "QuestionHeader": "Work Method Statement",
        "QuestionID": 612,
        "QuestionSort": 1600,
        "QuestionTerminalType": 1,
        "QuestionText": "PPE",
        "QuestionType": 3,
        "QuestionairName": "JOB SAFETY & ENVIRONMENTAL ANALYSIS"
    },
    {
        "QuestionHeader": "Work Method Statement",
        "QuestionID": 613,
        "QuestionSort": 1610,
        "QuestionTerminalType": 1,
        "QuestionText": "Work in Public Areas",
        "QuestionType": 3,
        "QuestionairName": "JOB SAFETY & ENVIRONMENTAL ANALYSIS"
    },
    {
        "QuestionHeader": "Work Method Statement",
        "QuestionID": 614,
        "QuestionSort": 1620,
        "QuestionTerminalType": 1,
        "QuestionText": "Manual Handling",
        "QuestionType": 3,
        "QuestionairName": "JOB SAFETY & ENVIRONMENTAL ANALYSIS"
    },
    {
        "QuestionHeader": "Work Method Statement",
        "QuestionID": 615,
        "QuestionSort": 1630,
        "QuestionTerminalType": 1,
        "QuestionText": "Noise",
        "QuestionType": 3,
        "QuestionairName": "JOB SAFETY & ENVIRONMENTAL ANALYSIS"
    },
    {
        "QuestionHeader": "Work Method Statement",
        "QuestionID": 616,
        "QuestionSort": 1640,
        "QuestionTerminalType": 1,
        "QuestionText": "Site Induction",
        "QuestionType": 3,
        "QuestionairName": "JOB SAFETY & ENVIRONMENTAL ANALYSIS"
    },
    {
        "QuestionHeader": "Work Method Statement",
        "QuestionID": 617,
        "QuestionSort": 1650,
        "QuestionTerminalType": 1,
        "QuestionText": "Hazardous Sub.",
        "QuestionType": 3,
        "QuestionairName": "JOB SAFETY & ENVIRONMENTAL ANALYSIS"
    },
    {
        "QuestionHeader": "Work Method Statement",
        "QuestionID": 618,
        "QuestionSort": 1660,
        "QuestionTerminalType": 1,
        "QuestionText": "Gases",
        "QuestionType": 3,
        "QuestionairName": "JOB SAFETY & ENVIRONMENTAL ANALYSIS"
    },
    {
        "QuestionHeader": "Work Method Statement",
        "QuestionID": 619,
        "QuestionSort": 1670,
        "QuestionTerminalType": 1,
        "QuestionText": "Hot Work",
        "QuestionType": 3,
        "QuestionairName": "JOB SAFETY & ENVIRONMENTAL ANALYSIS"
    },
    {
        "QuestionHeader": "Work Method Statement",
        "QuestionID": 620,
        "QuestionSort": 1680,
        "QuestionTerminalType": 1,
        "QuestionText": "Confined Space",
        "QuestionType": 3,
        "QuestionairName": "JOB SAFETY & ENVIRONMENTAL ANALYSIS"
    },
    {
        "QuestionHeader": "Work Method Statement",
        "QuestionID": 621,
        "QuestionSort": 1690,
        "QuestionTerminalType": 1,
        "QuestionText": "Traffic",
        "QuestionType": 3,
        "QuestionairName": "JOB SAFETY & ENVIRONMENTAL ANALYSIS"
    },
    {
        "QuestionHeader": "Worker JSEA Sign On Sheet",
        "QuestionID": 642,
        "QuestionSort": 1900,
        "QuestionTerminalType": 1,
        "QuestionText": "Record modifications to JSEA i.e. Change to a job step or new job step, new hazard, risk or risk control",
        "QuestionType": 9,
        "QuestionairName": "JOB SAFETY & ENVIRONMENTAL ANALYSIS"
    },
    {
        "QuestionHeader": "Worker JSEA Sign On Sheet",
        "QuestionID": 643,
        "QuestionSort": 1910,
        "QuestionTerminalType": 1,
        "QuestionText": "Name",
        "QuestionType": 5,
        "QuestionairName": "JOB SAFETY & ENVIRONMENTAL ANALYSIS"
    },
    {
        "QuestionHeader": "Worker JSEA Sign On Sheet",
        "QuestionID": 644,
        "QuestionSort": 1920,
        "QuestionTerminalType": 1,
        "QuestionText": "Name",
        "QuestionType": 5,
        "QuestionairName": "JOB SAFETY & ENVIRONMENTAL ANALYSIS"
    },
    {
        "QuestionHeader": "Worker JSEA Sign On Sheet",
        "QuestionID": 645,
        "QuestionSort": 1930,
        "QuestionTerminalType": 1,
        "QuestionText": "Name",
        "QuestionType": 5,
        "QuestionairName": "JOB SAFETY & ENVIRONMENTAL ANALYSIS"
    },
    {
        "QuestionHeader": "Worker JSEA Sign On Sheet",
        "QuestionID": 646,
        "QuestionSort": 1940,
        "QuestionTerminalType": 1,
        "QuestionText": "Name",
        "QuestionType": 5,
        "QuestionairName": "JOB SAFETY & ENVIRONMENTAL ANALYSIS"
    },
    {
        "QuestionHeader": "Worker JSEA Sign On Sheet",
        "QuestionID": 647,
        "QuestionSort": 1950,
        "QuestionTerminalType": 1,
        "QuestionText": "Name",
        "QuestionType": 5,
        "QuestionairName": "JOB SAFETY & ENVIRONMENTAL ANALYSIS"
    },
    {
        "QuestionHeader": "Worker JSEA Sign On Sheet",
        "QuestionID": 648,
        "QuestionSort": 1960,
        "QuestionTerminalType": 1,
        "QuestionText": "Name",
        "QuestionType": 5,
        "QuestionairName": "JOB SAFETY & ENVIRONMENTAL ANALYSIS"
    },
    {
        "QuestionHeader": "Worker JSEA Sign On Sheet",
        "QuestionID": 649,
        "QuestionSort": 1970,
        "QuestionTerminalType": 1,
        "QuestionText": "Name",
        "QuestionType": 5,
        "QuestionairName": "JOB SAFETY & ENVIRONMENTAL ANALYSIS"
    },
    {
        "QuestionHeader": "Worker JSEA Sign On Sheet",
        "QuestionID": 650,
        "QuestionSort": 1980,
        "QuestionTerminalType": 1,
        "QuestionText": "Name",
        "QuestionType": 5,
        "QuestionairName": "JOB SAFETY & ENVIRONMENTAL ANALYSIS"
    },
    {
        "QuestionHeader": "Worker JSEA Sign On Sheet",
        "QuestionID": 651,
        "QuestionSort": 1990,
        "QuestionTerminalType": 1,
        "QuestionText": "Name",
        "QuestionType": 5,
        "QuestionairName": "JOB SAFETY & ENVIRONMENTAL ANALYSIS"
    },
    {
        "QuestionHeader": "Worker JSEA Sign On Sheet",
        "QuestionID": 652,
        "QuestionSort": 2000,
        "QuestionTerminalType": 1,
        "QuestionText": "Name",
        "QuestionType": 5,
        "QuestionairName": "JOB SAFETY & ENVIRONMENTAL ANALYSIS"
    },
    {
        "QuestionHeader": "Worker JSEA Sign On Sheet",
        "QuestionID": 653,
        "QuestionSort": 2010,
        "QuestionTerminalType": 1,
        "QuestionText": "Name",
        "QuestionType": 5,
        "QuestionairName": "JOB SAFETY & ENVIRONMENTAL ANALYSIS"
    },
    {
        "QuestionHeader": "Worker JSEA Sign On Sheet",
        "QuestionID": 654,
        "QuestionSort": 2020,
        "QuestionTerminalType": 1,
        "QuestionText": "Name",
        "QuestionType": 5,
        "QuestionairName": "JOB SAFETY & ENVIRONMENTAL ANALYSIS"
    },
    {
        "QuestionHeader": "Worker JSEA Sign On Sheet",
        "QuestionID": 655,
        "QuestionSort": 2030,
        "QuestionTerminalType": 1,
        "QuestionText": "Name",
        "QuestionType": 5,
        "QuestionairName": "JOB SAFETY & ENVIRONMENTAL ANALYSIS"
    },
    {
        "QuestionHeader": "Worker JSEA Sign On Sheet",
        "QuestionID": 656,
        "QuestionSort": 2040,
        "QuestionTerminalType": 1,
        "QuestionText": "Name",
        "QuestionType": 5,
        "QuestionairName": "JOB SAFETY & ENVIRONMENTAL ANALYSIS"
    },
    {
        "QuestionHeader": "Worker JSEA Sign On Sheet",
        "QuestionID": 657,
        "QuestionSort": 2050,
        "QuestionTerminalType": 1,
        "QuestionText": "Name",
        "QuestionType": 5,
        "QuestionairName": "JOB SAFETY & ENVIRONMENTAL ANALYSIS"
    },
    {
        "QuestionHeader": "Worker JSEA Sign On Sheet",
        "QuestionID": 658,
        "QuestionSort": 2060,
        "QuestionTerminalType": 1,
        "QuestionText": "Name",
        "QuestionType": 5,
        "QuestionairName": "JOB SAFETY & ENVIRONMENTAL ANALYSIS"
    },
    {
        "QuestionHeader": "Worker JSEA Sign On Sheet",
        "QuestionID": 659,
        "QuestionSort": 2070,
        "QuestionTerminalType": 1,
        "QuestionText": "Name",
        "QuestionType": 5,
        "QuestionairName": "JOB SAFETY & ENVIRONMENTAL ANALYSIS"
    },
    {
        "QuestionHeader": "Worker JSEA Sign On Sheet",
        "QuestionID": 660,
        "QuestionSort": 2080,
        "QuestionTerminalType": 1,
        "QuestionText": "Name",
        "QuestionType": 5,
        "QuestionairName": "JOB SAFETY & ENVIRONMENTAL ANALYSIS"
    },
    {
        "QuestionHeader": "Worker JSEA Sign On Sheet",
        "QuestionID": 661,
        "QuestionSort": 2090,
        "QuestionTerminalType": 1,
        "QuestionText": "Name",
        "QuestionType": 5,
        "QuestionairName": "JOB SAFETY & ENVIRONMENTAL ANALYSIS"
    },
    {
        "QuestionHeader": "Worker JSEA Sign On Sheet",
        "QuestionID": 662,
        "QuestionSort": 2100,
        "QuestionTerminalType": 1,
        "QuestionText": "Name",
        "QuestionType": 5,
        "QuestionairName": "JOB SAFETY & ENVIRONMENTAL ANALYSIS"
    },
    {
        "QuestionHeader": "Worker JSEA Sign On Sheet",
        "QuestionID": 663,
        "QuestionSort": 2110,
        "QuestionTerminalType": 1,
        "QuestionText": "Name",
        "QuestionType": 5,
        "QuestionairName": "JOB SAFETY & ENVIRONMENTAL ANALYSIS"
    },
    {
        "QuestionHeader": "Worker JSEA Sign On Sheet",
        "QuestionID": 664,
        "QuestionSort": 2120,
        "QuestionTerminalType": 1,
        "QuestionText": "Name",
        "QuestionType": 5,
        "QuestionairName": "JOB SAFETY & ENVIRONMENTAL ANALYSIS"
    },
    {
        "QuestionHeader": "Worker JSEA Sign On Sheet",
        "QuestionID": 665,
        "QuestionSort": 2130,
        "QuestionTerminalType": 1,
        "QuestionText": "Name",
        "QuestionType": 5,
        "QuestionairName": "JOB SAFETY & ENVIRONMENTAL ANALYSIS"
    },
    {
        "QuestionHeader": "Worker JSEA Sign On Sheet",
        "QuestionID": 666,
        "QuestionSort": 2140,
        "QuestionTerminalType": 1,
        "QuestionText": "Name",
        "QuestionType": 5,
        "QuestionairName": "JOB SAFETY & ENVIRONMENTAL ANALYSIS"
    },
    {
        "QuestionHeader": "Worker JSEA Sign On Sheet",
        "QuestionID": 667,
        "QuestionSort": 2150,
        "QuestionTerminalType": 1,
        "QuestionText": "Name",
        "QuestionType": 5,
        "QuestionairName": "JOB SAFETY & ENVIRONMENTAL ANALYSIS"
    },
    {
        "QuestionHeader": "Worker JSEA Sign On Sheet",
        "QuestionID": 668,
        "QuestionSort": 2160,
        "QuestionTerminalType": 1,
        "QuestionText": "Name",
        "QuestionType": 5,
        "QuestionairName": "JOB SAFETY & ENVIRONMENTAL ANALYSIS"
    },
    {
        "QuestionHeader": "Worker JSEA Sign On Sheet",
        "QuestionID": 669,
        "QuestionSort": 2170,
        "QuestionTerminalType": 1,
        "QuestionText": "Name",
        "QuestionType": 5,
        "QuestionairName": "JOB SAFETY & ENVIRONMENTAL ANALYSIS"
    },
    {
        "QuestionHeader": "Worker JSEA Sign On Sheet",
        "QuestionID": 670,
        "QuestionSort": 2180,
        "QuestionTerminalType": 1,
        "QuestionText": "Name",
        "QuestionType": 5,
        "QuestionairName": "JOB SAFETY & ENVIRONMENTAL ANALYSIS"
    },
    {
        "QuestionHeader": "Worker JSEA Sign On Sheet",
        "QuestionID": 671,
        "QuestionSort": 2190,
        "QuestionTerminalType": 1,
        "QuestionText": "Name",
        "QuestionType": 5,
        "QuestionairName": "JOB SAFETY & ENVIRONMENTAL ANALYSIS"
    },
    {
        "QuestionHeader": "Worker JSEA Sign On Sheet",
        "QuestionID": 672,
        "QuestionSort": 2200,
        "QuestionTerminalType": 1,
        "QuestionText": "Name",
        "QuestionType": 5,
        "QuestionairName": "JOB SAFETY & ENVIRONMENTAL ANALYSIS"
    }
]